cluster	numberGenes	numDEat2hours	perDEat2hours	numDEat4hours	perDEat4hours	numDEat8hours	perDEat8hours	numHasMotif	perHasMotif
1.1.1	18	12	66.6666666666667	2	11.1111111111111	4	22.2222222222222	3	16.6666666666667
1.1.2	8	5	62.5	0	0	3	37.5	2	25
1.1.3	8	0	0	7	87.5	4	50	1	12.5
1.1.4	3	0	0	2	66.6666666666667	1	33.3333333333333	0	0
1.2.1.1	11	4	36.3636363636364	2	18.1818181818182	7	63.6363636363636	1	9.09090909090909
1.2.1.2	11	0	0	1	9.09090909090909	10	90.9090909090909	2	18.1818181818182
1.2.2	1	0	0	0	0	1	100	0	0
1.3	14	8	57.1428571428571	0	0	6	42.8571428571429	2	14.2857142857143
10	11	0	0	7	63.6363636363636	8	72.7272727272727	5	45.4545454545455
11	10	4	40	7	70	7	70	0	0
12	10	0	0	8	80	4	40	0	0
13	8	3	37.5	6	75	1	12.5	0	0
14	7	2	28.5714285714286	6	85.7142857142857	3	42.8571428571429	1	14.2857142857143
15	7	0	0	4	57.1428571428571	5	71.4285714285714	0	0
16	6	0	0	4	66.6666666666667	4	66.6666666666667	0	0
17	6	0	0	6	100	0	0	1	16.6666666666667
18	5	1	20	4	80	4	80	1	20
19	5	0	0	1	20	5	100	1	20
2.1	15	2	13.3333333333333	11	73.3333333333333	15	100	5	33.3333333333333
2.2	5	0	0	1	20	5	100	0	0
2.3	4	0	0	3	75	3	75	1	25
2.4	1	0	0	0	0	1	100	1	100
20	4	2	50	3	75	2	50	1	25
21	4	2	50	3	75	4	100	1	25
22	4	1	25	2	50	1	25	1	25
23	4	1	25	2	50	1	25	0	0
24	4	2	50	2	50	0	0	1	25
25	4	0	0	2	50	2	50	1	25
26	4	0	0	1	25	3	75	0	0
27	4	0	0	0	0	4	100	2	50
28	3	2	66.6666666666667	3	100	2	66.6666666666667	0	0
29	3	1	33.3333333333333	2	66.6666666666667	3	100	0	0
3.1	14	1	7.14285714285714	7	50	10	71.4285714285714	1	7.14285714285714
3.2	7	2	28.5714285714286	4	57.1428571428571	3	42.8571428571429	3	42.8571428571429
30	3	2	66.6666666666667	3	100	3	100	0	0
31	3	1	33.3333333333333	2	66.6666666666667	3	100	0	0
32	3	1	33.3333333333333	3	100	0	0	2	66.6666666666667
33	3	0	0	3	100	3	100	1	33.3333333333333
34	3	0	0	2	66.6666666666667	2	66.6666666666667	0	0
35	3	0	0	2	66.6666666666667	2	66.6666666666667	0	0
36	3	0	0	1	33.3333333333333	3	100	0	0
37	3	0	0	3	100	0	0	0	0
38	3	0	0	1	33.3333333333333	2	66.6666666666667	0	0
39	3	0	0	0	0	3	100	0	0
4	18	4	22.2222222222222	10	55.5555555555556	7	38.8888888888889	2	11.1111111111111
40	3	0	0	0	0	3	100	0	0
41	2	1	50	2	100	1	50	0	0
42	2	2	100	2	100	2	100	0	0
43	2	1	50	2	100	2	100	0	0
44	2	1	50	2	100	2	100	0	0
45	2	1	50	2	100	2	100	0	0
46	2	1	50	2	100	2	100	1	50
47	2	1	50	2	100	1	50	0	0
48	2	1	50	2	100	0	0	0	0
49	2	1	50	2	100	1	50	0	0
5	12	4	33.3333333333333	6	50	5	41.6666666666667	0	0
50	2	2	100	0	0	0	0	0	0
51	2	1	50	0	0	1	50	0	0
52	2	2	100	0	0	0	0	0	0
53	2	1	50	1	50	0	0	0	0
54	2	1	50	1	50	1	50	0	0
55	2	1	50	0	0	1	50	1	50
56	2	0	0	2	100	1	50	0	0
57	2	0	0	2	100	1	50	0	0
58	2	0	0	2	100	1	50	0	0
59	2	0	0	1	50	2	100	0	0
6	12	6	50	5	41.6666666666667	3	25	1	8.33333333333333
60	2	0	0	1	50	2	100	0	0
61	2	0	0	2	100	1	50	0	0
62	2	0	0	2	100	0	0	0	0
63	2	0	0	2	100	0	0	0	0
64	2	0	0	2	100	0	0	0	0
65	2	0	0	2	100	0	0	0	0
66	2	0	0	1	50	1	50	0	0
67	2	0	0	2	100	0	0	0	0
68	2	0	0	2	100	0	0	0	0
69	2	0	0	2	100	0	0	1	50
7	11	3	27.2727272727273	8	72.7272727272727	2	18.1818181818182	0	0
70	2	0	0	1	50	1	50	0	0
71	2	0	0	2	100	0	0	0	0
72	2	0	0	2	100	0	0	0	0
73	2	0	0	2	100	0	0	1	50
74	2	0	0	0	0	2	100	0	0
75	2	0	0	0	0	2	100	1	50
76	2	0	0	0	0	2	100	1	50
77	2	0	0	0	0	2	100	0	0
78	2	0	0	0	0	2	100	0	0
79	2	0	0	0	0	2	100	0	0
8	11	6	54.5454545454545	2	18.1818181818182	4	36.3636363636364	0	0
80	2	0	0	0	0	2	100	0	0
9	11	1	9.09090909090909	5	45.4545454545455	10	90.9090909090909	2	18.1818181818182
