########################################################################
PBS Prologue:	Fri Nov  6 17:47:06 EST 2015
Job ID:		232833.login00.halcyon.local
Username:	ieclabau
Group:		lorainelab
Job Name:	flat1mock8hours
Limits:		neednodes=1:ppn=4,nodes=1:ppn=4,vmem=4000mb,walltime=08:00:00
Queue:		compute
Account:	
Nodes:		compute04[4] 
########################################################################


../fastq/nicknames/flat1mock8hours.fastq.gz
flat1mock8hours
/lustre/groups/lorainelab/index/bowtie2/A_thaliana_Jun_2009

[2015-11-06 17:47:08] Beginning TopHat run (v2.0.13)
-----------------------------------------------
[2015-11-06 17:47:08] Checking for Bowtie
		  Bowtie version:	 2.2.5.0
[2015-11-06 17:47:08] Checking for Bowtie index files (genome)..
[2015-11-06 17:47:08] Checking for reference FASTA file
[2015-11-06 17:47:08] Generating SAM header for /lustre/groups/lorainelab/index/bowtie2/A_thaliana_Jun_2009
[2015-11-06 17:47:09] Preparing reads
	 left reads: min. length=100, max. length=100, 25810297 kept reads (822 discarded)
[2015-11-06 17:54:39] Mapping left_kept_reads to genome A_thaliana_Jun_2009 with Bowtie2 
[2015-11-06 18:17:02] Mapping left_kept_reads_seg1 to genome A_thaliana_Jun_2009 with Bowtie2 (1/4)
[2015-11-06 18:20:14] Mapping left_kept_reads_seg2 to genome A_thaliana_Jun_2009 with Bowtie2 (2/4)
[2015-11-06 18:23:32] Mapping left_kept_reads_seg3 to genome A_thaliana_Jun_2009 with Bowtie2 (3/4)
[2015-11-06 18:26:53] Mapping left_kept_reads_seg4 to genome A_thaliana_Jun_2009 with Bowtie2 (4/4)
[2015-11-06 18:30:08] Searching for junctions via segment mapping
[2015-11-06 18:32:44] Retrieving sequences for splices
[2015-11-06 18:32:50] Indexing splices
Building a SMALL index
[2015-11-06 18:33:06] Mapping left_kept_reads_seg1 to genome segment_juncs with Bowtie2 (1/4)
[2015-11-06 18:34:45] Mapping left_kept_reads_seg2 to genome segment_juncs with Bowtie2 (2/4)
[2015-11-06 18:36:25] Mapping left_kept_reads_seg3 to genome segment_juncs with Bowtie2 (3/4)
[2015-11-06 18:38:05] Mapping left_kept_reads_seg4 to genome segment_juncs with Bowtie2 (4/4)
[2015-11-06 18:39:36] Joining segment hits
[2015-11-06 18:42:49] Reporting output tracks
-----------------------------------------------
[2015-11-06 18:54:24] A summary of the alignment counts can be found in ./flat1mock8hours/align_summary.txt
[2015-11-06 18:54:24] Run complete: 01:07:16 elapsed
TopHat v2.0.13
/sw/packages/bowtie2/2.2.5-1/bin/bowtie2-align-s version 2.2.5
64-bit
Built on localhost.localdomain
Thu Mar  5 18:34:52 EST 2015
Compiler: gcc version 4.1.2 20080704 (Red Hat 4.1.2-54)
Options: -O3 -m64 -msse2  -funroll-loops -g3 -DPOPCNT_CAPABILITY
Sizeof {int, long, long long, void*, size_t, off_t}: {4, 8, 8, 8, 8, 8}


########################################################################
PBS Epilogue:	Fri Nov  6 18:54:30 EST 2015
Job ID:		232833.login00.halcyon.local
Limits:		neednodes=1:ppn=4,nodes=1:ppn=4,vmem=4000mb,walltime=08:00:00
Resources:	cput=03:57:28,mem=2981776kb,vmem=3558224kb,walltime=01:07:18
Account:	
Exit Value:	0
########################################################################
compute04: ignoring orphans (shared node)...27460 27592 27633 27649 27774 27815 28322 28327 
