gene	logFC.at2hours	PValue.at2hours	fdr.at2hours	logFC.at4hours	PValue.at4hours	fdr.at4hours	logFC.at8hours	PValue.at8hours	fdr.at8hours	logFC.GLM	PValue.GLM	fdr.GLM	C2.ave	C2.sd	T2.ave	T2.sd	C4.ave	C4.sd	T4.ave	T4.sd	C8.ave	C8.sd	T8.ave	T8.sd	symbol	desc
AT1G01620	0.148706195025425	0.0132239454729137	0.204251006642771	0.308805358723262	2.6219988437725e-14	1.11889703784798e-11	0.411043913318012	7.29109909413413e-14	2.83550843770876e-11	0.287663397689281	1.8275170597062e-12	4.11829518994427e-10	245.578696998343	29.3709205602447	271.349718795471	19.9418330097841	240.004320822766	6.01439248064764	294.224860525739	10.2553026434165	222.044207440675	10.4511926892076	299.337413027644	10.3211907924314	TMP-B|PIP1;3|PIP1C	plasma membrane intrinsic protein 1C
AT1G02065	-0.372549658821615	6.17918769665418e-12	9.95794271397283e-09	-0.595596050119667	2.1814431188973e-44	5.95773930202043e-41	-0.538825229898673	1.13300162134049e-18	8.116763983619e-16	-0.502913046281425	1.58085843370154e-40	5.61086179581518e-37	35.6828752771383	2.78936562894609	27.3633815938759	2.81000630118515	41.4514600449705	3.94294300148808	27.2744005719708	2.61840865111777	38.6737093589643	3.27834154949603	26.2338662716959	1.73303139440026	SPL8	squamosa promoter binding protein-like 8
AT1G05680	0.743264363033955	4.78580101858816e-21	3.27779511763103e-17	0.330874665490536	1.88923102910215e-07	2.61912632669081e-05	0.613312855766219	5.17733282366369e-21	5.03366183780702e-18	0.551350400619368	6.33377194195907e-16	2.81001750812478e-13	6.76836506904882	0.864882288156211	11.4484717264352	1.79758344592101	16.9219611959366	2.57599347490968	19.9944792695043	1.824424951231	12.2134973808402	1.22745862875679	17.6737334836616	1.15115780285282	UGT74E2	Uridine diphosphate glycosyltransferase 74E2
AT1G06000	-0.224198981651879	5.96822816122597e-05	0.00617002183792252	-0.268931831769341	1.81882971160925e-10	4.82272410230683e-08	-0.266282075227675	2.45019585876565e-06	0.000237372533320916	-0.252457998121551	2.66619007375701e-13	7.14186801455251e-11	119.501744969319	12.0120175191938	99.2604347513937	14.220424100045	158.958042589025	10.3298282344333	127.413969354783	13.2574297313083	132.21886839346	14.500171668572	109.296648312157	4.95187710273829	AT1G06000	UDP-Glycosyltransferase superfamily protein
AT1G06002	-0.217326977296704	4.20345383013642e-05	0.00475858765001724	-0.265857506053637	2.34318983638863e-10	5.98082781510372e-08	-0.262984593771017	4.05402221288911e-06	0.000376664323213243	-0.248240340094345	1.55057783196941e-13	4.37542771071276e-11	136.760700900836	12.6197033164733	114.520907835	15.9287794845187	185.08304137285	11.0166195322127	148.419377019259	14.365802584292	154.96346933037	17.8835723950943	128.690696270293	7.04784522774778	AT1G06002	Potential natural antisense gene, locus overlaps with AT1G06000
AT1G08500	0.915088123860976	4.48974244705726e-05	0.0049713754759327	1.05335034255138	4.23884791098608e-07	5.33489287082676e-05	0.936979441167584	6.66341528374084e-10	1.41717308022873e-07	0.965790743712766	1.95075453182889e-22	1.73092888052342e-19	0.88488876181496	0.110944596719671	1.58027038258077	0.172927581919376	1.06307913325457	0.161258878398428	2.22196982809764	0.315496796267194	2.21155275245877	0.271102766047113	4.22406666784281	0.376716302136876	ENODL18|AtENODL18	early nodulin-like protein 18
AT1G09970	-0.293627520429007	9.99113232101561e-06	0.00158936252377923	-0.223459453308516	8.09356706274674e-06	0.000686470217548684	-0.362765210395413	3.24177341085262e-11	8.73770272907335e-09	-0.293887366484226	5.29377613890845e-13	1.31852175165058e-10	32.6082176591696	4.13634382081761	26.2717336649472	4.52233281620843	13.6265778338968	0.634543303329393	11.2174547983253	0.522236926982946	13.9012351724869	1.33061354256327	10.5011563144519	0.322000935994082	LRR XI-23|RLK7	Leucine-rich receptor-like protein kinase family protein
AT1G12320	0.5304007616112	1.50460018474279e-14	4.12200266612134e-11	0.640041918978016	5.27204276062029e-28	5.33276888278892e-25	0.73449626581706	8.52285130597778e-21	7.58892186179248e-18	0.630192742396859	3.50993422355562e-46	1.99322144687277e-42	26.1966905625801	1.39178420608061	37.7485335795376	3.29565484153405	22.2524751515927	1.15550092891807	34.0227504184584	0.711193191880709	22.2239017356392	2.71374995418123	37.4074506320381	2.41302467935571	AT1G12320	Protein of unknown function (DUF1442)
AT1G12780	0.395131617336045	1.61767094666825e-10	2.01444151158743e-07	0.317543632233865	8.53081632928056e-16	4.48048316863426e-13	0.260401150692994	5.77901308829295e-07	6.75202031341627e-05	0.324092245748164	5.2449980677118e-18	3.03931581907365e-15	106.109510384293	10.8578148995306	139.716875737283	15.6825241689569	82.8546698974736	3.34130960652036	105.591843644712	7.52816378669946	89.4006764313494	4.72733033118146	108.16633628066	6.1180399251491	UGE1|ATUGE1	UDP-D-glucose/UDP-D-galactose 4-epimerase 1
AT1G12860	0.00860447980970181	0.872074397454838	0.973323752658301	0.262413211990128	1.49884160519355e-07	2.14318654866184e-05	0.35993587584033	1.29070755934921e-07	1.79270060653896e-05	0.212323424609898	3.90156085698199e-05	0.0016031970907836	22.489396838716	2.83842491549185	23.9406698696513	0.549530900976137	22.2512032887859	1.42772385508092	27.0487970336333	1.62358245070271	22.5815943537374	2.17063240961616	28.1452091346176	2.14658573339296	ICE2|SCRM2	basic helix-loop-helix (bHLH) DNA-binding superfamily protein
AT1G17190	0.113812923832035	0.111727472015293	0.505346842220733	0.5116177439788	1.47648165442477e-14	6.61052302688442e-12	0.536420265457016	5.89929916736568e-16	3.08839656217684e-13	0.39208038033641	4.29123032353476e-13	1.08790351612898e-10	16.5468573768294	2.54651326223872	16.6215431204584	1.22138210683679	16.3858061620516	1.25017529555361	23.4285932881515	1.29491515377223	19.0943267531546	1.25989595798455	27.8763445392292	1.29128135963684	ATGSTU26|GSTU26	glutathione S-transferase tau 26
AT1G18740	0.256671891725633	7.22120130901158e-05	0.00709787791153376	0.284731565637556	8.22846543425252e-07	9.44233695272565e-05	0.413714428210643	6.38073801539146e-07	7.32923337523214e-05	0.306677109003149	1.11939924396264e-10	1.83723827358817e-08	18.2236501964901	3.03627839910569	20.7792627058966	0.714955906892773	14.5508065122213	0.253188651333756	17.4951111043133	1.03112617514093	8.00910453066359	0.710233267710537	10.7981439972085	0.392418324291948	AT1G18740	Protein of unknown function (DUF793)
AT1G19050	-0.305209650471722	0.00110354347604254	0.0492388877356048	-0.549190301600949	4.33864536892248e-06	0.000402721741337048	-0.482988648702946	2.62152083856941e-07	3.38225885252962e-05	-0.434762998291191	2.75056961042462e-09	3.4104660925064e-07	22.8925591973866	4.16234883852691	17.6533119686359	1.36246423333391	14.052382742463	1.42476707530392	9.01196291478409	1.71022694493634	14.0033831858786	0.713682849943594	9.92923941932746	0.437259672982502	ARR7	response regulator 7
AT1G19180	-0.371903586836928	6.9603916813923e-06	0.00127124593668949	-0.251859598330349	4.43533867734074e-06	0.000409234914246125	-0.494014763908588	1.63336841712061e-16	8.89303768385487e-14	-0.374165620754895	1.07958119097877e-13	3.19308628506783e-11	32.0709270374373	4.53070283492141	24.4701089201607	4.89514838229937	24.8920780955496	2.62715120573332	20.5387420820968	1.65534202055375	31.1992250298074	1.63078212690356	21.2955920586083	0.706205587611056	JAZ1|TIFY10A	jasmonate-zim-domain protein 1
AT1G20620	0.212607320216881	0.000772184453936764	0.0386125659046101	0.282401889326495	4.66992814054734e-11	1.314849561304e-08	0.248899184966879	6.80893828202326e-08	1.01289468224874e-05	0.247155144487977	1.33364035957447e-16	6.64340076662413e-14	475.939515071025	42.8160875362513	551.600177543613	33.3444130769217	744.012516081595	50.3572185919089	923.061025444675	70.0540741958977	896.885760790933	62.7282533031346	1069.47879592027	62.5046838892436	SEN2|ATCAT3|CAT3	catalase 3
AT1G21090	0.211599868367917	0.00102467614397642	0.0469431900340768	0.315763506964726	1.14791042868723e-09	2.54882778194121e-07	0.25863038413301	2.80043639377938e-07	3.59605094093661e-05	0.26138228276329	7.98153055571258e-17	4.04692104640898e-14	30.7598472154858	3.53830066962872	35.3801362051646	1.3308952205737	33.2161932304234	2.05921977301334	40.7380339104535	1.34683881918811	34.2726658373436	1.74196669668268	40.7428701010698	1.67667619874228	AT1G21090	Cupredoxin superfamily protein
AT1G21460	0.327335418437197	3.96073870661157e-08	2.26059161679855e-05	0.355675983884954	1.25421066225172e-13	4.89339248525094e-11	0.449616595834781	1.81627915694883e-18	1.23611418724045e-15	0.376871047665634	2.24124345771525e-26	3.34936140728246e-23	153.871524748979	23.159811051609	190.753617364925	19.8124951704558	180.857190181734	14.6749158698055	227.645397626066	15.6195894420661	167.159103655764	13.0751736071059	226.324202702499	12.6945158454242	AT1G21460	Nodulin MtN3 family protein
AT1G21880	-0.0153554112718181	0.769604195427792	0.936170740847651	0.176274987070086	1.00111655274096e-05	0.000816164005131594	0.205255850815627	6.37470067054926e-06	0.000565271909949063	0.123472766236008	6.1529283025768e-05	0.00232013607202345	53.6951274302621	4.47178123193293	53.360956516932	3.11892488195312	57.0306350793544	3.05342064444826	61.959348170543	1.02113150452739	67.7983577765725	3.78303030055542	76.8393379455342	2.09245652988246	LYM1	lysm domain GPI-anchored protein 1 precursor
AT1G23000	0.215658175984979	0.00433103372898379	0.113543540707407	0.43500133733234	1.36531836457335e-12	4.72002656390667e-10	0.644435895778869	7.6713909149974e-20	6.14230220232277e-17	0.430251779637457	1.4566716086625e-14	5.17009170704538e-12	13.518509992934	2.41128704726012	15.9333618504357	2.30031796074742	12.4925054637909	1.40442068296936	17.5980609521918	2.1507101442626	12.0938567778441	1.61211666898276	18.0182934238585	0.796987471312645	AT1G23000	Heavy metal transport/detoxification superfamily protein
AT1G24070	-0.265510100503338	3.19811641550039e-05	0.00387679634155082	-0.32010528829096	5.71768861945178e-12	1.8813951070584e-09	-0.431218745786736	2.41745583114087e-12	7.39442697653348e-10	-0.341669218232946	3.33667397780888e-20	2.42926976733091e-17	25.839245895338	3.37285608038763	21.7244829271109	0.953608246451964	34.6662120782567	0.610004291420479	26.9628075047173	1.69761219769864	41.9990642202796	3.86843853531285	31.0412111978097	1.29004192634536	CSLA10|ATCSLA10	cellulose synthase-like A10
AT1G25530	0.507694270159226	5.87525083570447e-13	1.07305581263306e-09	0.807097416366466	1.2392685089914e-35	1.53843919313928e-32	0.986106560796938	4.12886357013636e-50	2.24800105939644e-46	0.763754253673117	1.49591711441885e-37	3.8613700497099e-34	12.7201521805498	0.942373890776221	17.3511779955078	0.560522818095318	11.755175135705	1.46494880556306	20.2573046002866	0.858512744999458	10.1776483722634	0.111038479696913	20.6479872034283	1.51938614570724	AT1G25530	Transmembrane amino acid transporter family protein
AT1G26680	-0.135710095116451	0.578900129282775	0.85885607951589	1.15311699339319	3.0522334382979e-09	6.41227287948877e-07	1.22040281909723	3.59432316792441e-08	5.55956020456853e-06	0.71932900153504	4.22132520682815e-05	0.00170984747393265	0.495018126070862	0.19110346456673	0.424117807928636	0.0687392465079877	0.322553566682632	0.0565321196062586	0.716701347229105	0.172899321284087	0.27938392912296	0.0676168391584067	0.639858070571546	0.0425274988832041	AT1G26680	transcriptional factor B3 family protein
AT1G27660	0.182362528991663	0.0129842200257642	0.202831892270235	0.402684740560458	8.72641003291818e-12	2.73939062539113e-09	0.407047036682687	4.24003798568555e-10	9.30859307131594e-08	0.332794824364022	1.64536864848937e-15	6.870381971354e-13	10.0591563327419	0.90284070964422	11.4150831283799	0.59861969395266	10.1586610109419	0.776024224458641	12.940206636622	0.224745926302246	10.6750681089901	0.541890068862587	14.0605304206709	0.595194827389926	AT1G27660	basic helix-loop-helix (bHLH) DNA-binding superfamily protein
AT1G28070	0.497688694149489	3.54450222481369e-06	0.000789473032121917	0.616880484882639	6.7444403719874e-11	1.87956541836069e-08	0.534370434028486	1.14784872306605e-08	1.94086247130603e-06	0.548290251812572	1.31923495672429e-20	1.01238803678998e-17	8.37268246949418	1.68032396063219	11.374768670457	2.15660175728111	9.26509605288777	0.89774984630603	14.4342452036288	0.360187171311536	10.9522738296274	0.64410655190117	16.1819352353066	0.569009814155581	AT1G28070	unknown protein; BEST Arabidopsis thaliana protein match is: unknown protein (TAIR:AT2G33510.1); Has 85 Blast hits to 77 proteins in 15 species: Archae - 0; Bacteria - 0; Metazoa - 0; Fungi - 0; Plants - 85; Viruses - 0; Other Eukaryotes - 0 (source: NCBI BLink).
AT1G28330	0.53239091119927	2.33448342717409e-06	0.000597715027765061	1.36218645179792	2.76398117185298e-94	1.88717724461192e-90	0.840729926325209	1.51267569629997e-20	1.28686157751169e-17	0.908809824439647	1.53614357345962e-14	5.31917812497712e-12	72.3138304891237	30.400450556018	110.020691040856	42.3741755241111	30.6807962915356	4.13448643515366	84.9610193277536	13.4976408761782	86.7149137969525	13.9999469452887	156.663585056855	12.279998257946	DRM1|DYL1	dormancy-associated protein-like 1
AT1G48660	0.685674176102403	1.49746959969753e-06	0.00042293481601354	1.16426451806132	2.70818178725204e-25	2.24130766035274e-22	1.29178660836044	9.88549499116574e-29	1.92223450103218e-25	1.07951587030433	4.59105118973176e-39	1.30358307481244e-35	1.75118942335371	0.178166242103254	2.94671254809173	0.792014058243205	2.28077129553381	0.523848886946015	4.99776714271906	1.60889567274847	2.6155651619462	0.472643826940811	6.07037009373305	0.581712060291925	AT1G48660	Auxin-responsive GH3 family protein
AT1G52410	-0.0367524567088156	0.55850746498788	0.849978803693063	-0.18870476396518	1.00637337569323e-05	0.000818007835224935	-0.434504850397276	7.98845064161227e-23	8.69878367266443e-20	-0.221040034094237	7.08842991564788e-06	0.000373411649396857	36.1149846855573	5.0512375290508	33.7280872684372	7.08910488234889	48.7707824727615	9.54948159893197	40.9981799477982	6.63330229389905	63.0905837845484	6.72246174268336	45.7680783578331	5.21374746771576	TSA1	TSK-associating protein 1
AT1G53070	0.123523890335599	0.0141232069161342	0.210383985615545	0.419144217917493	2.23043486698126e-21	1.4503668250506e-18	0.582639816657858	1.7728652466387e-26	2.54014266364449e-23	0.379574455322113	2.48751263691931e-13	6.72670798216065e-11	54.1947110186197	8.20015425109825	56.3277858537671	6.92896500102483	65.8950646437375	3.57003362772517	85.4625970448428	5.3683893758364	84.110246677251	8.21361637759799	126.373225944396	2.55964550023797	AT1G53070	Legume lectin family protein
AT1G53160	-0.226710642372882	4.43094843750093e-06	0.000911006393384421	-0.305666362438535	2.26668146423943e-12	7.6426342555362e-10	-0.433615097037143	4.5454112148338e-12	1.32872572384538e-09	-0.322794139654384	1.24524234298587e-14	4.53300142137701e-12	79.5273576267928	10.2365519270021	64.1097961854059	2.97598518127772	103.461778014993	5.04620865099786	82.4353805966993	1.67882250318574	91.4503888283832	3.98316626153764	69.8535909039691	8.19088016418951	SPL4	squamosa promoter binding protein-like 4
AT1G55850	0.305832544626054	6.70812969151507e-08	3.46045970864398e-05	0.523723400911967	1.57964520999659e-30	1.72566761320868e-27	0.507607999620493	1.0866895705288e-26	1.6434972321392e-23	0.442312091258347	2.47217566323355e-40	7.79943953131705e-37	30.5697066223292	2.14705493541476	38.3137339830883	2.28061752308591	17.5100998280756	0.990149050556954	25.1123119824209	1.07624749333486	29.9296199327402	2.47912388760034	41.5210361658955	1.91365800232836	CSLE1|ATCSLE1	cellulose synthase like E1
AT1G56680	0.43752937377516	0.00838061051312252	0.163412957734879	1.05285156014736	5.0225011417791e-07	6.23497857650587e-05	1.23155632785787	7.32324600656829e-15	3.32267876728014e-12	0.888033316692904	8.92203364965604e-16	3.89741882228206e-13	2.14628870615228	0.435512248439486	2.74875906084503	0.434539366286202	1.01655125770881	0.062961677685531	2.11415685972852	0.295682550823831	1.84342048739432	0.102851611490109	4.31235130103154	0.425012212404084	AT1G56680	Chitinase family protein
AT1G58460	-0.149734983618194	0.412273449133743	0.764805214820425	-0.783294554679875	2.71805143755583e-06	0.00026417331961241	-0.835822582430269	1.60563283308413e-06	0.000164323844417479	-0.573973011949929	1.8485605349565e-06	0.000115105324187621	4.88023404089765	0.700405602811215	4.17546284515869	0.88935859764941	5.71127456106758	1.15858014860087	3.32144397859848	0.730110483546336	5.27821529855625	0.978751188436654	3.17490755659566	0.569999582984414	AT1G58460	unknown protein; Has 35 Blast hits to 35 proteins in 8 species: Archae - 0; Bacteria - 0; Metazoa - 0; Fungi - 0; Plants - 35; Viruses - 0; Other Eukaryotes - 0 (source: NCBI BLink).
AT1G62500	0.0854033307724501	0.162091526813003	0.580234848739622	0.44273170631991	8.33504377609209e-26	7.34317356673713e-23	0.608453448688315	1.11713452754005e-17	7.24089362933877e-15	0.377172577275618	2.19677384923363e-11	4.24321065817277e-09	164.301117131719	11.4075878632361	177.535062330932	26.6150118746261	154.509377218929	12.9027818307958	200.070485213905	12.0697274797964	150.362127948022	23.4776888491886	224.257375169796	11.7929726769256	AT1G62500	Bifunctional inhibitor/lipid-transfer protein/seed storage 2S albumin superfamily protein
AT1G63800	0.323127708526255	3.30178553124885e-05	0.00398483332220677	0.378103738960952	2.0294482287342e-09	4.29660934689611e-07	0.43583935343253	1.10497083067923e-09	2.29623060485348e-07	0.37742744985997	3.53785038673458e-19	2.28303917911231e-16	22.076946496758	2.42035280815046	28.5026827398093	1.4759849760159	18.4210696309576	0.25441958883559	23.6025844135487	0.440178362520359	18.4699507207452	0.833327264833264	24.7790831987786	1.11019439044914	UBC5	ubiquitin-conjugating enzyme 5
AT1G64450	0.383596883376665	3.25527374297067e-13	6.37010567588746e-10	0.441868362520874	1.17151957385219e-15	6.03686246820323e-13	0.475408302575914	3.68611404330294e-16	1.96758985491835e-13	0.433292506076356	1.82689232383694e-42	8.64546344050433e-39	34.4143721699076	2.16287662300202	44.9867778265939	2.41364737693504	32.7464503542208	0.156614661778633	42.4396824717597	0.741781332985467	36.6139241759007	1.95191183860496	49.8422285536094	1.63754532068547	AT1G64450	Glycine-rich protein family
AT1G66180	0.345387574292833	1.55403697021563e-10	2.01444151158743e-07	0.346786212266799	5.3219569771279e-14	2.16937264182597e-11	0.249356722710456	2.10699724991993e-06	0.000207071430088701	0.315447594356737	6.31739698566425e-25	8.15346227322504e-22	27.9256619627292	2.24506933516301	35.4317617947053	1.31940735298613	30.0456171620475	0.807412570424584	38.3452274040033	3.03575490073155	27.8283486964243	1.45465495652775	32.9693361404578	1.60076482093612	AT1G66180	Eukaryotic aspartyl protease family protein
AT1G66390	0.510771458705772	0.000124372973708113	0.0104109435222782	0.771808083066059	4.80490730019741e-09	9.9414260057342e-07	0.904648053802299	1.06694683056393e-07	1.51278612335634e-05	0.717964548303749	5.73170414734449e-11	9.98441764169935e-09	6.30183793931801	2.28202996341234	8.76343211892134	3.44375192596082	4.40442834619198	0.669966345332464	6.26497795608341	0.73364063411928	2.85870247791506	0.702067676587825	5.14816449362678	0.462386839432829	ATMYB90|MYB90|PAP2	myb domain protein 90
AT1G67360	0.188357254274291	0.000325715878747819	0.0206598573471665	0.335108760738222	1.2874636493861e-14	5.86031995473063e-12	0.583378169083572	3.89621265533353e-25	4.72755270798006e-22	0.372813046923277	1.45499789398648e-14	5.17009170704538e-12	44.8452533015951	6.61211965919585	48.8200941147314	8.50623434376048	54.6787827798966	5.97056076598576	67.1879759305805	9.68101399486964	53.1116445736479	6.33870962820997	77.5367192792841	1.95909990232635	AT1G67360	Rubber elongation factor protein (REF)
AT1G68560	0.138616832540687	0.0116345525106107	0.193643164761365	0.227419336179886	1.31391011054682e-07	1.89863486926688e-05	0.225674126251116	2.01663388747414e-07	2.69111883915238e-05	0.197520328734664	1.13522936592064e-17	6.32033384626484e-15	159.019049033731	4.42549900813332	174.277475364738	7.47523715913343	192.587371182704	7.6676745422192	226.890843829958	4.37004560385858	232.942122069885	7.73322463823952	270.461395744878	6.41068217695345	XYL1|TRG1|ATXYL1	alpha-xylosidase 1
AT1G68740	-0.133919868230055	0.0632460333146053	0.413430763227613	-0.359294740859829	1.38592168116369e-11	4.15944033343533e-09	-0.363707232049254	1.9195025907624e-07	2.59973228996642e-05	-0.287081663669474	1.29334139987815e-09	1.72409087831644e-07	11.8367550222354	0.9766203736263	10.9914585307942	1.23518041655005	14.911750101873	0.893145280853392	11.8058554437889	0.177365442233912	15.0629891344611	1.56432660971717	11.5901596572814	0.361283018874379	PHO1;H1	EXS (ERD1/XPR1/SYG1) family protein
AT1G70560	0.143943715362579	0.0406447391141477	0.346454036332044	0.290973930368712	1.78582900746299e-06	0.00018198797023441	0.438996416316353	5.3645024790309e-17	3.04245522888871e-14	0.295431519820368	6.82735826675416e-12	1.40475370018998e-09	20.2947088914774	0.497632130521826	22.2948290790704	2.87319142577355	22.4861237567682	2.61180790115327	26.5971836081567	0.690170625514014	24.8790422766473	0.108724517403122	33.5545517517619	0.635805862472913	WEI8|SAV3|TAA1	tryptophan aminotransferase of Arabidopsis 1
AT1G71960	-0.0930911721642441	0.191598432236661	0.62043286979745	-0.341408489866609	1.40717575194228e-07	2.0227040505945e-05	-0.5517215903121	4.17054330439192e-10	9.23046344515945e-08	-0.316346477583517	4.55543806822937e-08	4.24088880358376e-06	10.4602538564759	0.974366937802049	9.8603223733487	0.76942906933705	9.20975488570037	0.657784967526641	7.15326205153819	0.71012802778991	7.85264158931317	0.802662910827863	5.3606561637705	0.230443813714508	ABCG25|ATABCG25	ATP-binding casette family G25
AT1G72180	-0.271686431352674	9.30080673118421e-07	0.000292879196790256	-0.294478995996816	1.36584189349605e-11	4.14472310591895e-09	-0.357876142269224	2.20343663426279e-13	8.10596695872106e-11	-0.307766699667714	2.37991782704263e-21	1.98751137591319e-18	22.1151339983925	1.43245190038356	18.703763597392	0.208672824042058	24.4058844059576	0.821448640800736	20.353603233338	1.5734153699057	19.9723104857836	0.83756472119831	15.6438080080525	0.663107340257769	AT1G72180	Leucine-rich receptor-like protein kinase family protein
AT1G77690	-0.357068422777008	5.22532607761537e-05	0.00560062005208491	-0.762616038517579	1.25281301034492e-16	7.12824502615209e-14	-0.783404053574988	1.25242290748674e-13	4.67050805623447e-11	-0.61690951858434	1.63412137723833e-25	2.20948773263358e-22	6.88321690228548	0.413554343388854	5.33688483854197	0.122653783347415	6.31452825324157	0.125732295755197	3.67929798531333	0.0958796668143766	5.93138521823963	0.490904021905587	3.44755134110546	0.0873644089748628	LAX3	like AUX1 3
AT1G77990	-0.226369095708894	0.00472094812386998	0.118438731503244	-0.457816928258741	3.16105886516922e-07	4.13070232854721e-05	-0.570577815078394	2.37306274439812e-08	3.77788813396199e-06	-0.402507751183836	8.26948101018324e-13	2.00410343560655e-10	6.96657342886872	0.276330028722845	6.14486046236976	0.0573535044443882	5.00813154909244	0.839482826098966	3.537581595585	0.381944407608371	4.9086312549882	0.455715343651941	3.21119955398213	0.0835729738017735	AST56|SULTR2;2	STAS domain / Sulfate transporter family
AT1G78700	0.631999480639589	2.29814048404809e-22	2.09866189003271e-18	0.726634604768588	6.99386144745877e-40	1.36435249993962e-36	0.913885509559609	2.15107871129611e-56	2.9279407878807e-52	0.756773322816196	5.58882831734697e-89	7.9344595621375e-85	16.3374625199719	0.362804722506623	25.8417453317222	2.05358401842394	14.8182448386371	0.44123620322481	24.3850488784765	0.138668530232795	15.3630818431571	0.0590784710937848	28.4430243190329	1.34231272274087	BEH4	BES1/BZR1 homolog 4
AT1G78710	0.628557676819641	1.48426136415734e-09	1.45262547655796e-06	0.588197231479224	5.76411706545088e-09	1.16610223092244e-06	0.814713511664367	1.149695766542e-19	8.94233367216366e-17	0.679623838264635	3.64994870823864e-33	8.63638696847733e-30	7.33463297818693	0.672822409167086	11.2820582010983	1.2857504566039	6.54118646334133	0.747153076398188	9.72436292279018	0.633188278219751	6.84632708556649	0.472521769030367	11.79557082521	0.957306479940616	TBL42	TRICHOME BIREFRINGENCE-LIKE 42
AT1G79420	0.216772147863977	0.032676871926335	0.314220983957134	0.506741675227484	8.85426489359737e-09	1.67929742020165e-06	0.621513343111155	2.63697354933853e-13	9.20337576072342e-11	0.44301125258497	1.25542317497337e-12	2.89808826261739e-10	7.59657115877312	1.13334159909243	9.36968131349705	0.568777675491557	5.97668825614702	0.299853512109366	8.24674037062416	0.625938309446255	6.14433640051398	0.518292358779657	9.04569319954917	0.387419909046559	AT1G79420	Protein of unknown function (DUF620)
AT1G80280	0.00274403487418889	0.960603199497106	0.997538646344483	0.200578753941651	7.06685603482261e-07	8.24798740030086e-05	0.321732811594959	5.43455522457771e-10	1.18355917502943e-07	0.17637687632019	7.69763979531398e-06	0.000401777177110561	51.1917346962745	5.17202854252	52.9338946450293	5.49812237043999	58.0971052784658	2.81317848250511	65.4874078187696	5.30140417397647	69.3645496926979	4.35761456904572	85.033261328449	2.38817503206327	AT1G80280	alpha/beta-Hydrolases superfamily protein
AT1G80920	0.347871318880681	3.82064774705658e-08	2.227031184646e-05	0.745625866662057	1.47608998648973e-38	2.51959335131382e-35	0.337292322301353	2.84864437134572e-07	3.62376849164227e-05	0.474348255961638	4.30171827590568e-11	7.73056890671304e-09	102.447440576467	25.8539486151003	133.214467278315	33.2281700354149	38.1753533393637	5.3255794507667	70.3230741252802	11.7144977848486	36.8295107487105	3.97942729100094	48.3798403496688	4.83833586733295	J8	Chaperone DnaJ-domain superfamily protein
AT2G01210	0.164677198430607	0.0146653298425971	0.214049747665312	0.329072356627245	3.39971393891534e-08	5.49405842519034e-06	0.469517166951527	7.25013629106281e-15	3.32267876728014e-12	0.326308016343852	1.20169259868609e-13	3.51761439660752e-11	8.49092846954412	0.972438971445372	9.78189690911274	0.317617072801698	10.9944046643904	0.340606911477831	13.5274473683158	0.831024090933209	11.2142278301846	0.562795201784429	15.3108656202608	1.25515635215629	AT2G01210	Leucine-rich repeat protein kinase family protein
AT2G01570	0.213981958864846	3.71973791409735e-05	0.00433642297423876	0.252414824312004	2.3094243930874e-10	5.95025373581227e-08	0.329612707273235	4.07096198222015e-12	1.20460650045629e-09	0.264524239129337	2.87718712566454e-24	3.40395213525495e-21	60.3276871190459	2.97233756958795	69.4770091823773	0.492426398050498	57.6049829330729	1.6653757434338	68.5599049632456	0.541485409934806	54.1053644584528	0.91335292106431	68.0814566767418	2.90950817578896	RGA|RGA1	GRAS family transcription factor family protein
AT2G06850	0.137728448068653	0.0185366797260644	0.239204370124946	0.212333120930983	8.18478572008363e-08	1.24879711062125e-05	0.291956309949027	8.26666067180368e-07	9.14810176701266e-05	0.213897062496494	1.15619220017375e-06	7.564267587957e-05	100.864227155581	9.58308644661632	105.872888079029	19.5919390946165	59.3037331418498	2.66967822132181	67.7977551153762	4.16318969195385	68.0369990604125	4.36446172394826	84.1598941157873	4.10956068574971	EXT|XTH4|EXGT-A1	xyloglucan endotransglucosylase/hydrolase 4
AT2G18328	0.0173200789050592	0.806258984777246	0.950267026090708	-0.330494776022619	2.18604356218884e-07	2.98515178634697e-05	-0.33163193682263	2.332206170399e-08	3.73468521039835e-06	-0.21167595588203	0.00071511255805322	0.0173071333212672	54.3687324420698	13.2418350980034	49.5412447306865	7.55768980528858	72.0089012489501	8.61530048755656	55.4188700710968	6.25102673078305	67.5759635161278	5.01318806227466	53.5657794370224	1.20122918277937	RL4|ATRL4	RAD-like 4
AT2G20670	0.698164787927009	5.92746698941183e-19	3.24777771283853e-15	1.48293827867156	3.38275917930955e-95	3.0795511982041e-91	1.11892702649433	8.25722997270019e-09	1.44093956119755e-06	1.09201882084111	9.83909614052613e-19	6.20825101809109e-16	19.2974388487684	5.46908362325237	32.5698794819346	10.912982888854	7.80348224558751	1.86846112968147	24.0039459084516	6.67235226965598	4.48421931910776	1.06487144620122	10.7097219177457	2.73518444012271	AT2G20670	Protein of unknown function (DUF506)
AT2G22420	-0.181319059626081	0.00263807263062033	0.0862441978382751	-0.476716395846957	7.62911811194576e-17	4.43316690968831e-14	-0.293290105964692	7.53339643525139e-07	8.4744483949111e-05	-0.310606504885937	4.51547213801153e-16	2.06794057881773e-13	30.8387196102319	1.81419304147245	26.4831848471112	2.36227693507793	27.7485191613806	0.780634589196634	19.6462295391764	1.66766564428855	34.1648693647616	2.04513384825565	28.5658704169912	0.391008933040892	AT2G22420	Peroxidase superfamily protein
AT2G22680	0.153904667058303	0.00705470746075663	0.148606371812894	0.283736788480975	6.84885355459983e-08	1.06277863312316e-05	0.346096734542484	8.10978222492903e-09	1.42433936457576e-06	0.25875193861398	6.06504257953247e-14	2.02600963533229e-11	16.8153646449495	1.78350413667457	19.2565823038216	0.84718491241131	14.9216018117411	0.454609386607421	18.1277017011918	1.35141785305324	14.1694187914281	0.751944030008938	18.0157491075123	0.741715007421109	AT2G22680	Zinc finger (C3HC4-type RING finger) family protein
AT2G23120	0.0771867534071663	0.632204176127713	0.883209915749378	0.441026958419183	3.09953224474092e-18	1.88114055858043e-15	0.38519921015762	2.45506983896991e-07	3.18675249164445e-05	0.298046272819535	0.000337832191081582	0.00951627701743098	279.581516129849	58.8037169764329	325.004739245531	54.2131044489422	173.099593129821	18.6654692650051	235.915795820206	33.1397248179441	132.231690880905	14.7799457335476	169.054730349231	12.5168646963591	AT2G23120	Late embryogenesis abundant protein, group 6
AT2G24150	0.23373972367907	7.48593944851192e-06	0.001349242086391	0.350703895566588	5.89490684469033e-16	3.21991601670675e-13	0.392498568071928	8.67956554959661e-15	3.87350513043719e-12	0.326621066490794	3.07194336576446e-28	5.45154749546975e-25	50.99219906517	3.34492055691165	60.3675106967198	3.22813018619778	54.8825881107712	2.39144320173604	68.0441632254887	3.29694191396963	53.8517302115562	2.6325894720477	70.9307790494897	2.69550930441637	HHP3	heptahelical protein 3
AT2G25790	0.130043200068389	0.123629019332658	0.524647778141411	0.398399260309904	2.91613897550547e-08	4.82682857939575e-06	0.439496195481951	4.47138892598522e-09	8.3948014297997e-07	0.326625709843131	3.61671072887995e-11	6.58287720742419e-09	3.9200556076047	0.504307465088775	4.27281650546614	0.31013354712913	4.21859352057965	0.23411376363336	5.46943554190943	0.160588253340217	4.85752798851149	0.315567971678542	6.45507809009776	0.453216322239854	AT2G25790	Leucine-rich receptor-like protein kinase family protein
AT2G25810	-0.151941909480666	0.0618698649007746	0.408332165459316	-0.307357294771743	3.81477270188385e-08	6.12854454477352e-06	-0.269500770622226	5.91574461200561e-06	0.000529751038067858	-0.244213699407364	5.09066613761521e-08	4.66272175198214e-06	27.4276289419165	3.76925071593361	24.8314512891388	3.40543729468836	28.2962373611918	0.544634068028807	22.3739780770429	0.517227813248877	25.9286532125575	1.48768348567225	21.0897093509614	1.74251509073549	TIP4;1	tonoplast intrinsic protein 4;1
AT2G25900	0.388104726603057	3.5884649569571e-07	0.000132142408918245	0.836430881859067	8.15231310567679e-48	2.78309779036423e-44	0.453247367322076	1.05816820586674e-05	0.000861960004490549	0.556432539565886	2.53092131345983e-10	3.88448539320964e-08	39.8290264344411	14.4719791474776	51.237615488798	11.845526098709	22.7337818493239	3.51997188126928	43.774896366885	9.06406960091969	17.4506427064626	2.58788254155509	24.9517087813265	3.1657711235427	ATTZF1|ATCTH	Zinc finger C-x8-C-x5-C-x3-H type family protein
AT2G27190	0.412816027141342	1.91250202466558e-14	4.76317322433984e-11	0.462197607866822	7.97995119938345e-22	5.44851118015903e-19	0.623104927514779	6.17571574524051e-34	1.86801677480758e-30	0.499547777518506	1.84777598503624e-59	1.74885837730397e-55	20.8498899035671	0.360577035480631	27.4936978953007	0.808850138975862	22.6125243540104	0.595046408039967	31.5444710971107	1.36040440731114	22.072679186297	0.339055549274239	33.6804165826355	0.953006439850698	ATPAP12|ATPAP1|PAP1|PAP12	purple acid phosphatase 12
AT2G28470	0.211386135136176	0.00030755458136176	0.0196863675490345	0.296517103652588	5.80186768740202e-12	1.88636676679329e-09	0.377361983337901	2.41773363533232e-17	1.46262139454782e-14	0.295454949416245	5.50510468893093e-24	6.2524777015002e-21	120.784765068562	5.66015566671432	141.612158285333	11.453445217588	132.366443832854	5.20740653280309	167.758209657813	4.32451386337917	130.737519841511	4.76722798843719	170.433439162483	7.1364162409747	BGAL8	beta-galactosidase 8
AT2G28900	0.249008312691939	0.000994750458201662	0.0459564646760417	0.478098212023445	6.52857648123503e-35	7.75225879473956e-32	0.372945775515152	3.15054047537466e-10	7.33052678300208e-08	0.368035430463408	3.11074764683457e-17	1.63567719785594e-14	79.4885573396468	11.8652109611161	92.9697487405311	12.139152539488	161.50469824154	11.5484501078538	222.855514187592	23.4514983019589	344.120175294618	39.9356303839423	439.056314377314	8.94790800133679	OEP16|OEP16-1|ATOEP16-L|ATOEP16-1	outer plastid envelope protein 16-1
AT2G30540	-0.313832254660928	0.00941395869736296	0.174732257773005	-0.740367723721322	6.50337577317416e-06	0.000571105131000513	-0.727927613597309	1.45562053489707e-07	2.01149024474634e-05	-0.584538450939629	9.79192402260783e-10	1.33669178220157e-07	8.26919189530647	0.659551246758064	6.3489869278708	1.05940286980267	6.94920317598336	1.65906961556568	4.40422630941235	0.119430577060725	9.41974927888005	1.17338694701077	5.80514276775323	1.54687374272308	AT2G30540	Thioredoxin superfamily protein
AT2G31920	0.129758854135838	0.500597618797586	0.820826691679355	0.782732017356477	9.43330884186453e-07	0.000106021850938338	1.57180546302687	7.08622964343543e-28	1.28605619722162e-24	0.877177665734813	3.56494951457379e-10	5.27204044358376e-08	0.865435643353776	0.11561063546622	0.954318208403247	0.0742542063714905	1.05122909551773	0.182546374732145	1.86194891548371	0.394141077882819	1.10959643059975	0.101364187384877	3.22158618488054	0.285762326516905	AT2G31920	Plant protein of unknown function (DUF936)
AT2G32280	0.603530979986171	2.03482456219989e-08	1.32728699300067e-05	0.841459823589106	9.92071445383422e-22	6.60840566947967e-19	0.702693064767087	6.09485700331738e-17	3.38612841227162e-14	0.716517120610555	9.24793980905744e-31	1.87561430670269e-27	7.21221566463419	1.77079875463054	10.5500296198853	1.40171441915271	10.938649359702	0.533454363547982	18.3117716189805	0.239250065177646	24.7286869404855	4.037548959124	39.0291925561406	0.755151897136254	AT2G32280	Protein of unknown function (DUF1218)
AT2G32710	0.261153286867029	5.05913296056626e-06	0.000990000047054809	0.292103861137775	9.52028609912152e-08	1.4208116593066e-05	0.326013175202687	1.05968049066706e-07	1.51034984279736e-05	0.29129111383429	8.95662814009687e-20	6.05510712880739e-17	23.1080447659325	1.40876150956785	27.9715337596269	0.569380884864053	18.4876386152077	0.250449146727555	22.6823577365054	0.722976520280087	17.2046109414483	0.8511237563407	20.9308996069162	0.141830661201119	ICK7|KRP4|ACK2	Cyclin-dependent kinase inhibitor family protein
AT2G33330	0.170265825378177	0.00446232314224674	0.115657336617778	0.617231256854387	2.30527330117774e-32	2.62330496368605e-29	0.777184372691368	2.95522121476917e-43	1.34083311882768e-39	0.522195707366654	2.18476121905372e-18	1.31987468199599e-15	26.0670530582403	2.34166039015978	29.0582369669329	1.49229243120947	22.6353190481668	1.36073759187137	34.7637125951029	0.460073071014326	24.6250010479644	1.13935366585495	41.9225298900464	0.690516876444651	PDLP3	plasmodesmata-located protein 3
AT2G34710	0.0474418350929953	0.37505608641299	0.738105801530447	0.249157286682111	6.75256860062987e-10	1.55214399819787e-07	0.341177731359596	2.45053107375661e-13	8.6637412234904e-11	0.211812991186858	1.30926786508295e-08	1.38316954489118e-06	31.3450809905207	2.69242411869286	32.9268777338684	1.28142737245552	28.9717560012668	0.523709288804123	33.9707127871887	1.20732102166201	26.5505442124652	0.701857441976789	33.2465272652696	1.70908572681503	ATHB14|PHB|PHB-1D|ATHB-14	Homeobox-leucine zipper family protein / lipid-binding START domain-containing protein
AT2G38750	-0.562167167474994	5.68608102020394e-08	2.99568991595206e-05	-0.347336150659763	1.76394332035366e-06	0.000180430921431381	-0.360984481870232	3.55004035543812e-06	0.000334403974380941	-0.419205284971153	2.99326084804082e-12	6.53774219379008e-10	9.72893864409174	1.74090300307657	6.48180738001619	0.235570324492343	12.435670364852	1.86969967688216	9.3484013090329	0.471767990441803	15.0384063001014	0.808572896697485	12.2317718297505	0.44824098924956	ANNAT4	annexin 4
AT2G39010	-0.109485473328347	0.103313370711119	0.491384219444759	-0.190978005128503	1.02890104392269e-06	0.00011217169657522	-0.257131023065387	6.32959314173854e-09	1.14112923243409e-06	-0.187092521758934	2.2254669164751e-08	2.24077686618418e-06	171.817783676883	19.502057805059	160.965550093335	7.01688543975932	206.587187246667	5.38088473902757	178.906978986807	4.93353421185918	183.933847736116	8.436811865366	154.490461866644	4.89828271253404	PIP2E|PIP2;6	plasma membrane intrinsic protein 2E
AT2G39330	-0.268075942649412	3.86869294979371e-05	0.00445322319548523	-0.366881073601859	1.4706330032616e-13	5.57839693778853e-11	-0.801599232616506	3.39868094360128e-51	2.31305728319144e-47	-0.48005991231268	9.86846771386845e-14	2.94952918176401e-11	46.2818874322625	10.1949652625883	36.1855148407264	11.0611061236752	70.3648005223052	18.3494922359538	50.8976534531827	12.5066862087475	73.167625897819	14.9891887408305	40.2806427457758	8.71206988170898	JAL23	jacalin-related lectin 23
AT2G44940	-0.561650707449213	5.97775606178931e-16	2.04708256335975e-12	-0.706044724882231	2.90729667187359e-27	2.73797170363929e-24	-0.366487493695477	1.30046566139989e-06	0.000136689485329302	-0.547939602784063	2.79680630730144e-22	2.40643994816718e-19	23.7619719008486	3.58761367807149	15.7779682497377	1.96646871077871	24.3139113224719	2.20028244436153	14.668642984251	2.21304558664361	16.6428422922961	0.891662787754424	13.0317868098991	0.614568103180763	AT2G44940	Integrase-type DNA-binding superfamily protein
AT2G45160	0.218988768657912	8.33549198934086e-05	0.0078128051105241	0.286154945255635	5.31504427879737e-13	1.93668234639902e-10	0.303591114741179	1.24694852352104e-07	1.74977730184604e-05	0.268702811090668	7.86164552657886e-18	4.4644712616336e-15	37.2749046335186	1.63537285152991	42.3657451200676	2.81933795912106	30.3946899190743	1.68048133758609	37.2742013429225	1.00795061308371	27.0281443728045	2.63725188563993	33.5866752582256	1.12519393420582	ATHAM1|HAM1	GRAS family transcription factor
AT2G45900	0.408795979833114	4.48919050616502e-06	0.000911006393384421	0.401783951153712	3.27931930958316e-08	5.36296345293567e-06	0.538254555747761	3.28859760006665e-10	7.58690614123852e-08	0.446888339363406	1.19428773077546e-20	9.41961272989954e-18	6.49547819922046	0.876201772306187	8.60675876154213	0.500351405656793	6.58775518254312	0.403200520347047	8.93590301552523	0.424097727659518	5.34240442224058	0.409525069355645	8.03263619306647	0.460551029035177	AT2G45900	Phosphatidylinositol N-acetyglucosaminlytransferase subunit P-related
AT2G46650	-0.361241406881001	0.00201618057389536	0.0748823148242211	-0.288079065485099	4.40851794024107e-08	6.95959731016901e-06	-0.329765227459182	3.34478131974588e-07	4.15776172910694e-05	-0.319149796078896	5.07969975291811e-06	0.000279521307721622	35.3526561920407	8.12604993189312	26.7625099754233	10.2113125379304	79.3459896970959	11.1809558074997	61.907064160338	4.47905775699559	52.5128529867857	6.70323878387421	42.1888114679598	1.25507595038019	ATCB5-C|B51|CB5-C	cytochrome B5 isoform C
AT2G46920	-0.0156970838433826	0.802182620961819	0.948500710349638	0.229794263988774	9.54532885840495e-06	0.000787590563298784	0.24892089723241	1.05273673497959e-05	0.000860620184274754	0.15528295155439	0.000168430435285433	0.0053375153789002	10.0060950175468	1.12868289049562	9.99288288885121	0.430101159341781	9.33439666079335	0.340804077445484	10.9932286163618	0.243685747201469	10.189576188064	0.157456970820456	12.0268413923738	0.900424868373886	POL	Protein phosphatase 2C family protein
AT2G47180	-0.393281112152538	0.000241743184513315	0.0166401916656452	-0.437905550730104	3.63764180719962e-11	1.03487120204613e-08	-1.10591524774816	9.35532589196782e-18	6.21170821358634e-15	-0.589651504506329	2.89345951170431e-12	6.36875111436684e-10	17.449049589204	2.3022473244622	13.0519340810813	2.2489449235603	16.9063045786681	1.45562560836659	12.5564035187695	1.94029384835679	5.57579230737768	0.887376346536018	2.59282802313236	0.132731720405798	GolS1|AtGolS1	galactinol synthase 1
AT2G47750	-0.106455865932883	0.079832845775926	0.458661980883413	-0.279172355548075	1.18116166458383e-06	0.000127002780399406	-0.531566070407446	2.08685709401336e-11	5.79699088472711e-09	-0.289709737141908	8.32531138453534e-09	9.19801134056406e-07	17.0069406783905	1.02984506584074	16.0440184636841	0.507517531474872	12.3830170417055	0.753286622056928	10.3395072991961	0.400476901013954	9.74351900343627	0.976475403567211	6.54806528867989	0.469858555215832	GH3.9	putative indole-3-acetic acid-amido synthetase GH3.9
AT3G02050	0.0901460541079909	0.0712839707484758	0.436604573645491	0.287885844536462	6.00596628183813e-14	2.41219036946002e-11	0.303746361519012	2.38401639146692e-09	4.70290421919593e-07	0.226992882856725	6.94220184161651e-13	1.71405981818138e-10	31.5653417823806	1.70046476266539	34.6039455104189	1.30590701251623	33.0060746672175	1.09567023923001	39.8613514431941	1.33833026720343	30.0860101590478	0.986405370297708	36.4151750682424	1.03699673709578	KUP3|ATKUP3|ATKT4	K+ uptake transporter 3
AT3G02550	0.588632082724999	1.03552299645058e-18	4.72819800179335e-15	0.752420292636449	8.54673345881193e-47	2.59355374992903e-43	0.505511937308749	1.70702651876572e-10	4.22458026548719e-08	0.612016333487553	1.45209097839752e-19	9.58852819549282e-17	19.2006832221314	3.44342913804116	28.7019247495608	4.88432363061881	26.4434345999964	4.4655584103523	45.907452985436	13.4542700307581	23.9178898864204	2.20816913396797	34.5807633217376	5.15197592682603	LBD41	LOB domain-containing protein 41
AT3G03170	0.530306467242152	0.00175895937305354	0.0681615506770971	1.09803041686221	1.73301270903026e-14	7.63392098327832e-12	0.980296670119509	1.00882539469654e-15	5.0857877258933e-13	0.882174620139067	6.76149086300347e-24	7.38406813708156e-21	2.88076478353051	0.716326676083644	4.07118846887361	0.36337416266774	2.78586881457695	0.524336798955053	6.02796221711648	0.726865882443266	5.3495101852023	0.831396484763506	10.5872692117595	0.258662070242874	AT3G03170	unknown protein; BEST Arabidopsis thaliana protein match is: unknown protein (TAIR:AT5G24890.1); Has 184 Blast hits to 184 proteins in 18 species: Archae - 0; Bacteria - 0; Metazoa - 0; Fungi - 0; Plants - 184; Viruses - 0; Other Eukaryotes - 0 (source: NCBI BLink).
AT3G05190	0.186814480911941	0.0200190034551876	0.249914009663022	0.583972168677591	3.27062822395039e-23	2.55211792640883e-20	0.958370320600123	2.29790985777125e-52	2.08520000193689e-48	0.580415758590997	2.12532171571323e-15	8.49949081633259e-13	6.99506270013616	0.75094545405417	8.45920602352903	1.05487740774687	8.10917184130726	0.218511207499428	12.1731776510044	0.607169848338428	7.7078938116463	0.324173285075669	14.6640585412045	0.906658297738668	AT3G05190	D-aminoacid aminotransferase-like PLP-dependent enzymes superfamily protein
AT3G08030	0.124026131717429	0.0274578493525995	0.288212735963147	0.251130689815797	7.77893870287314e-10	1.74139831896859e-07	0.317708010936753	2.88182653340349e-13	9.93062831884091e-11	0.230082575396744	1.84960374826399e-15	7.50252126117255e-13	151.390190215482	8.70729463185168	164.365078425006	6.37530004960852	117.522630498619	3.95371922643305	138.341760178427	4.46709438801168	132.394002429336	1.41123736322448	163.300456840449	1.21530746825198	AT3G08030	Protein of unknown function, DUF642
AT3G10760	-0.26762518251128	2.78480337692704e-05	0.00345214811376893	-0.517128861820501	1.80433989483226e-18	1.11996197426736e-15	-0.467752412277756	2.50319582856966e-12	7.57161111568355e-10	-0.414169669757014	7.78804402916848e-26	1.10566861082105e-22	18.9850720013773	1.85183423358764	15.9162151881582	0.799432231120553	19.3389878899433	0.397818028593616	13.3281368582406	1.05575699347902	17.4822854644498	0.112935056067637	12.1720454468771	0.223241915535895	AT3G10760	Homeodomain-like superfamily protein
AT3G10870	-0.301104135221524	1.04838258455533e-05	0.00163190280036806	-0.444238209336481	3.32005904785126e-15	1.61918094028332e-12	-0.459134468116372	5.2085772754831e-13	1.72918413622532e-10	-0.407801319868384	1.02378945813723e-31	2.23611368264219e-28	20.2704813207843	0.834984831024288	16.3821091473315	1.38369556546762	31.0641839156931	0.524307967949524	22.9024051276366	1.57799151877833	31.4697886502868	1.52453136101291	22.522863247679	0.996889569632748	MES17|ATMES17	methyl esterase 17
AT3G10985	0.0699434562154151	0.397744390061124	0.754717087554686	0.253301433537331	3.08109901582624e-07	4.06511571117055e-05	0.281137459269855	7.06975486758774e-06	0.000612929734905545	0.192644484178682	0.00203429083379924	0.0392669299353471	89.4429717686433	15.997475463064	95.4241672999786	12.7968120183126	75.7591298096974	13.0406605835945	87.0615124086285	9.02647532764571	77.3550273013344	7.4698580605842	92.4288439821491	4.09493662173938	SAG20|WI12|ATWI-12	senescence associated gene 20
AT3G11680	-0.231474596983942	0.147909303895222	0.562873078137727	-1.09956532187165	8.61917076900125e-13	3.01792529323324e-10	-1.05136439120618	1.06161562481437e-09	2.22310478110166e-07	-0.760462122029447	2.3236086574395e-10	3.64511294029487e-08	2.74771135639539	0.336501869012713	2.34308279245565	0.784768731356028	2.86728406683202	0.520537999074616	1.33791777617434	0.101189885850107	2.2526034982636	0.177294909479418	1.00527517274706	0.0708898384210403	AT3G11680	Aluminium activated malate transporter family protein
AT3G13690	0.039881841668398	0.457973524294503	0.7961928806615	0.19275359739109	2.37972300911714e-06	0.000234630379429597	0.243496829053342	1.24442168636126e-06	0.000131816698707442	0.16088000784991	2.80425062316025e-05	0.00121377884442092	24.5095752213823	2.0583294327096	25.7646098069915	2.54720171921681	28.177253056015	1.41814766180505	33.0385824553842	1.77380290404518	30.0281611758824	1.10376266302299	34.5053824372581	1.66732879974353	AT3G13690	Protein kinase protein with adenine nucleotide alpha hydrolases-like domain
AT3G14230	0.124811664824996	0.0203889337960164	0.251610464088138	0.182919308916046	7.36601892839e-06	0.000636624503016643	0.255929888303944	3.34442998641025e-08	5.23249525977277e-06	0.186628777846492	1.07637465959845e-12	2.50512967906873e-10	155.235800705421	6.10160410127824	168.884419657384	8.87279707939927	114.59575066471	3.74667109017987	130.535287824044	4.50447067775756	105.640673379621	4.93153037687855	125.324608880937	2.71049760892844	RAP2.2	related to AP2 2
AT3G14395	-0.421530529021167	7.4272153787721e-07	0.000245151798213061	-0.453621458440109	7.6130069660065e-13	2.73577412169215e-10	-0.396564810545726	1.59394287903545e-06	0.000163743045267856	-0.423209665097767	5.47770291499017e-09	6.34832230890739e-07	47.5323167557104	10.1086406352318	30.9493730674	5.55404189292346	62.3194957885665	2.76242583490439	44.7000415343268	6.90405331388227	24.6685605487907	1.78549234065551	18.9962112549072	1.76119678970164	AT3G14395	unknown protein; Has 4 Blast hits to 4 proteins in 2 species: Archae - 0; Bacteria - 0; Metazoa - 0; Fungi - 0; Plants - 4; Viruses - 0; Other Eukaryotes - 0 (source: NCBI BLink).
AT3G15680	0.242289277506624	6.15222160936391e-05	0.00631259412772036	0.212241620979744	1.01496546781788e-06	0.000111773072143444	0.261836672564138	5.91420782594963e-07	6.88044784811225e-05	0.239831948283944	1.50683922349802e-14	5.28212258172874e-12	41.0902854418011	1.08299391935808	48.4055101247168	5.63135295420343	55.7926706369593	3.1998735249521	62.4718775779423	1.84440853450178	55.5629227200438	1.44716562662471	67.7953134496783	1.89637905277446	AT3G15680	Ran BP2/NZF zinc finger-like superfamily protein
AT3G16330	0.356235290240754	0.000212785804411599	0.0152289374047471	0.510533713482155	5.64047597604903e-09	1.14960477150653e-06	0.413099652984041	3.97071613285512e-06	0.000370187689331216	0.426639436591072	2.30409385144889e-10	3.63458004544666e-08	9.75116300658265	1.36689688238761	11.62641756735	2.93077679280771	12.7590355200712	2.02451144377066	16.4754291284564	0.730800193816355	11.464752921764	0.901255769138573	14.7192573140123	1.02363203329065	AT3G16330	unknown protein; BEST Arabidopsis thaliana protein match is: unknown protein (TAIR:AT1G52140.1); Has 109 Blast hits to 109 proteins in 16 species: Archae - 0; Bacteria - 0; Metazoa - 0; Fungi - 0; Plants - 109; Viruses - 0; Other Eukaryotes - 0 (source: NCBI BLink).
AT3G18280	0.395222875698736	1.50411656232101e-07	6.6462544098946e-05	0.679779711293811	3.0397296446658e-22	2.12866811090943e-19	0.933751018373515	3.22782331141943e-32	8.78710340067712e-29	0.657574399577127	1.41596164723837e-23	1.38637293143746e-20	24.5987481798479	2.67488266946915	31.3753498648016	3.41171145854045	21.8356198232359	2.21284481156172	33.2304186575724	3.42941914638499	16.8639706552843	1.55366605128362	31.2871342230777	4.44713755039158	AT3G18280	Bifunctional inhibitor/lipid-transfer protein/seed storage 2S albumin superfamily protein
AT3G21750	0.0970914629822253	0.0806144239549786	0.458959426157646	0.204087208919592	1.13981073468258e-07	1.66467224464791e-05	0.260523794487177	4.73355799500337e-09	8.70686819580923e-07	0.186633825435522	2.27925208543185e-10	3.61547953708112e-08	63.1504411030135	5.17277121100808	66.6901631947123	5.86438016577914	55.0632283976991	1.50227584996245	63.2354604339433	2.05384565999632	54.8482161082882	1.7279602355333	65.9487653898734	1.62529913223802	UGT71B1	UDP-glucosyl transferase 71B1
AT3G23580	0.256067828581306	4.63266839107345e-06	0.000933210170895942	0.480615998449952	1.26835270518789e-25	1.08249939785583e-22	0.499563410359493	3.98000190261528e-21	4.01287377018132e-18	0.414340937565666	1.37219079996974e-30	2.59746570495605e-27	24.5744950663537	2.48830266880675	28.3282410683686	2.08668311542376	28.483566426747	2.25083283588558	39.0602272047013	3.45668735674732	28.2630694253152	2.23575908982676	39.4976101977357	1.73077413201008	RNR2|RNR2A	ribonucleotide reductase 2A
AT3G23730	0.301908819562842	3.27560017426926e-06	0.000760494426900684	0.267898623053995	6.93868347687737e-08	1.06462013728651e-05	0.488947549996412	2.29464064393015e-17	1.41970459658433e-14	0.349343724950952	1.04465130728121e-10	1.73460989584459e-08	59.270312020106	12.2990586100779	70.0961701843327	11.9586058871012	88.5647228486886	4.78072782139401	106.182956396075	17.7764863599715	78.5866394718227	6.3514092701142	112.170841111039	10.2808283004776	XTH16	xyloglucan endotransglucosylase/hydrolase 16
AT3G24810	0.372197199573818	2.43999309131497e-05	0.00308046316726566	0.534823682012566	4.23214957983793e-10	1.04129943400859e-07	0.776838431955775	6.63499114152748e-21	6.22842633951044e-18	0.565418488099661	1.36081958761902e-26	2.1466172983808e-23	10.193725109894	0.356063447704424	13.0730270300181	0.532454740767329	9.54540832258224	0.348917053442175	13.4450890718948	0.890918293483503	10.5684763456062	0.911922762725392	17.7758627720052	0.677373846166229	KRP5|ICK3	Cyclin-dependent kinase inhibitor family protein
AT3G26510	0.288593471983183	0.00174780565348413	0.0680154597767774	0.517524728970934	6.02607126427024e-16	3.22702024114675e-13	0.339420938997081	3.18345262552481e-06	0.00030301793994637	0.384739207300542	2.67233771325942e-07	2.050766406224e-05	28.592875344837	4.13998977490662	37.196175728299	4.93297178774243	15.1808093005112	1.85763176619129	22.7531498169265	6.05868095979123	14.7858554067605	1.52471918526174	19.3648264827071	2.2401670550104	AT3G26510	Octicosapeptide/Phox/Bem1p family protein
AT3G42670	0.294388339588136	1.59065428625768e-05	0.00223474691417002	0.735755580583486	2.931722421911e-36	4.00341355324056e-33	0.605853566607821	2.00170273511598e-25	2.59487397895535e-22	0.549387133574013	2.68875811049368e-24	3.31933033866772e-21	5.21390498858719	0.684971047807561	6.51012462917088	0.717496432687673	5.76919394845882	0.260399641450835	9.79913119932078	0.165775043934702	8.11288923102574	0.47258614068309	12.2405846254915	0.247804034423979	CLSY|CHR38	chromatin remodeling 38
AT3G45140	-0.16656116954232	0.00694224729167316	0.147433958761766	-0.253290843740427	9.93524282309861e-08	1.46671036076566e-05	-0.405505811427911	6.7468237155966e-16	3.46544871716389e-13	-0.275726600086279	1.27543001184847e-11	2.53248669625353e-09	318.015830950582	56.966424699681	285.369682127203	43.6369350337237	453.091869337255	71.5320079252039	365.303061109103	47.7492010008919	564.66475401749	47.3406212209374	422.424744839564	21.6273230724569	ATLOX2|LOX2	lipoxygenase 2
AT3G52490	0.369162781729577	1.39721879495991e-05	0.00200409456056134	0.54629313420602	2.3980636080736e-11	6.89405423158927e-09	0.549604165041494	5.60858889790556e-12	1.59044391216337e-09	0.487429595875785	8.33037332414562e-24	8.7604674135478e-21	4.35461297352953	0.335343867441824	5.75876541427436	0.760662420245773	4.12378759479977	0.447635691037529	6.03319186913854	0.23551965387194	4.1520119883021	0.330155131184214	6.12708751185598	0.100752671379343	AT3G52490	Double Clp-N motif-containing P-loop nucleoside triphosphate hydrolases superfamily protein
AT3G52500	-0.301588498455678	5.93014785853846e-09	4.51284252034777e-06	-0.357105571935531	7.88401497015388e-19	5.00744960115983e-16	-0.323193798174686	5.9215309597401e-11	1.50655922726173e-08	-0.326918825049957	3.81768232179567e-42	1.54856102635809e-38	116.767036544196	2.04495690328102	95.239366125655	1.81563785386552	92.0554485521591	1.80618301752742	70.2750308163076	0.547876154585813	103.991701060812	3.98462962318645	82.0231489959912	2.79444188828422	AT3G52500	Eukaryotic aspartyl protease family protein
AT3G54430	0.252819499804901	9.6242739822255e-05	0.00873068245089569	0.381917335807974	1.75846737563834e-09	3.81154781714752e-07	0.377769344061073	3.72973692314793e-08	5.73641967564159e-06	0.332272116277314	4.90401536336663e-20	3.4811153056858e-17	23.9835308121147	2.05494852869844	28.7447328044982	1.14644761435167	19.577019846819	1.01516577560905	25.1494354739742	0.405937101778906	18.8032500101786	0.700927064385448	23.9104987592631	0.536629268811429	SRS6	SHI-related sequence 6
AT3G57010	0.458416264887426	3.3485469918893e-07	0.000125666840259999	0.424318641865918	8.90920081286713e-07	0.000100962316763574	0.435724293065202	7.64976869931918e-06	0.000654873123589831	0.439093964361522	2.71630927201578e-20	2.02965488077937e-17	5.91863300094612	0.820173102605247	7.96720669972874	0.619936547284676	6.81711051855376	0.965665384666668	9.38230172514094	0.586198579582144	6.99109765189036	0.835465345268192	9.57993682046834	0.600537698092066	AT3G57010	Calcium-dependent phosphotriesterase superfamily protein
AT3G60530	0.206463515790174	0.000626413142778369	0.0336494401167769	0.439500772221628	8.20260455917266e-23	6.05463062474498e-20	0.318937438027363	2.11338530854215e-07	2.8064725977777e-05	0.321369284206732	1.81984572831392e-15	7.48879704489065e-13	42.6731963179572	2.04684139837728	48.9021169990406	6.86738814172748	47.331603348699	2.17511972654318	64.2485924974013	6.1920372097151	49.7700899713659	4.3182028848198	62.373557775613	1.70254574081334	GATA4	GATA transcription factor 4
AT3G63450	0.163672654430621	0.00752163122889803	0.153742514313282	0.253086405231778	6.72301593599785e-07	7.91432276844988e-05	0.331720560968049	3.03305391474537e-09	5.85594515752577e-07	0.250771031957873	5.36545001274596e-10	7.61732938309545e-08	18.2517053250875	1.35036038825007	20.8666347392874	2.40554700577145	19.4967682410355	1.09670292961072	23.6529368157019	0.856922724318206	19.5683747936027	1.21747544903061	24.1941489211296	1.11172075407553	AT3G63450	RNA-binding (RRM/RBD/RNP motifs) family protein
AT4G00180	0.236759516592775	1.61124311133865e-05	0.00225212327950171	0.254850680531888	1.77578063272992e-09	3.81876731184936e-07	0.369389701310008	1.08094549156681e-12	3.5031641805861e-10	0.284506871967033	1.33103045701483e-18	8.2159301731476e-16	47.4160294841057	3.09603410422448	56.9884039064671	1.59215655271744	46.5219251408236	3.84201281213441	55.1222001996059	2.08770653353523	45.1328920731471	3.73481767637456	57.5598362816759	1.18009407384444	YAB3	Plant-specific transcription factor YABBY family protein
AT4G01080	-0.216102841142749	0.000369209016029686	0.0224276057719496	-0.265959651328018	5.85073251757921e-09	1.1749217337324e-06	-0.383398325172048	7.0603197200266e-15	3.31384627134973e-12	-0.289490399747777	1.31461936782871e-10	2.14524726035221e-08	61.0335566810101	11.4644040448869	49.7402790876306	8.68938550413083	97.2723405105292	7.94158977006661	77.8331285967393	7.16578565311051	106.110014699503	7.37995013612926	80.8458494096548	1.0572789209579	TBL26	TRICHOME BIREFRINGENCE-LIKE 26
AT4G01610	0.173297934433308	0.00205055902795067	0.0755781036414296	0.268096026644129	7.53599932995407e-12	2.39320555465553e-09	0.366832120956959	3.45257341677581e-14	1.38219714889541e-11	0.268195054261245	1.73785888548555e-16	8.50771813697876e-14	78.4265167425785	8.16063821762467	87.216331287309	3.06551445621906	73.9275900462288	1.82501284592636	90.2502227808399	3.15207890731094	75.0984095495877	2.42878742237385	96.5923896347128	5.84919137461077	AT4G01610	Cysteine proteinases superfamily protein
AT4G02100	0.153011572203812	0.0237906756994637	0.269996299016748	0.333718798558544	2.94180634074501e-08	4.83998029952332e-06	0.324932712993455	1.35547626554732e-06	0.000141923578373057	0.271873739480036	1.98543527160224e-13	5.42062010594942e-11	9.58895330442045	0.690050615692313	10.6718316978499	0.496947296827216	10.4252401677619	0.687983396376912	12.9978151284401	0.286491488474967	11.0901344032081	0.721628474433749	13.9802086263522	0.596700958794106	AT4G02100	Heat shock protein DnaJ with tetratricopeptide repeat
AT4G03210	0.28312516767589	3.98722678194041e-06	0.000853391132172184	0.344487499677837	5.31841294642914e-13	1.93668234639902e-10	0.400672889255859	5.4222595855544e-15	2.63589594102763e-12	0.341630744418742	1.39583461501104e-23	1.38637293143746e-20	612.830427091383	76.7374961393265	722.853989850157	31.3312332950014	889.796635482572	13.9339636648459	1118.95851511746	92.0887860312256	1020.33639960656	34.1177269367917	1374.41391974117	81.8554183918512	XTH9	xyloglucan endotransglucosylase/hydrolase 9
AT4G03400	-0.25642195794655	3.22640837382051e-06	0.000756375916928503	-0.235561135100743	9.89478234616336e-06	0.000809091019928346	-0.421592716780062	3.76241209751165e-09	7.21296792468729e-07	-0.292551956606479	1.94004563347984e-13	5.34812191427443e-11	28.9043865241826	2.28216932783676	23.3677723022709	2.87913005975312	25.7975135602224	0.780666948986962	21.4188165633396	2.78625057143965	11.7684572241198	0.59681407248332	8.79974171489124	1.01481455497629	DFL2|GH3-10	Auxin-responsive GH3 family protein
AT4G03965	0.367849809019641	0.0393447712033848	0.342108540119037	0.926197862227728	4.61883070915969e-10	1.10653408331456e-07	1.23637600699574	2.16469615582913e-14	8.92871567426308e-12	0.860361147577306	7.18208752773155e-15	2.68326570082118e-12	2.05810993601589	0.35641287576484	2.63028210433121	0.758149172733861	2.24711982830684	0.124756963006859	4.23350436267172	0.215087295285815	2.04595980889624	0.700477475484726	5.10216653578651	0.562460421972659	AT4G03965	RING/U-box superfamily protein
AT4G08950	0.301250040058575	0.000103775109584377	0.00929092451690716	0.261033095068494	8.07706448040712e-07	9.34714864510165e-05	0.291958985654098	1.55036917879041e-07	2.13160101788947e-05	0.282753145499925	8.41043790892797e-06	0.000435777324792155	42.8616276168884	8.33085610831722	50.5980747499618	11.6213324562128	87.2181835344016	4.7667098077444	104.507714517128	20.4670781246739	82.3631920579166	8.03464480432537	102.718831112504	3.35284556924238	EXO	Phosphate-responsive 1 family protein
AT4G09020	0.120756039919394	0.0154195829121004	0.219674931596413	0.341021850267234	2.67846210664215e-17	1.59024953466312e-14	0.355689824561405	4.58488609325701e-11	1.2049115185305e-08	0.279182278055969	3.47840911226813e-16	1.61911390711051e-13	26.6633636886081	1.8979453498988	29.4628699754705	2.42391550472915	61.9386919835231	2.26084481805596	78.1967678017861	6.6456420404191	124.646453789188	9.01901801886043	155.836628908117	6.81723934588603	ATISA3|ISA3	isoamylase 3
AT4G11190	0.110030135752333	0.513042627818449	0.827992515872448	-0.858274438296334	9.39602790142817e-08	1.40997207701047e-05	-0.661127000190428	5.91083841924773e-06	0.000529751038067858	-0.453050605292374	0.000238896691258732	0.00716286446842708	3.8925032549061	0.847254518180626	3.78668494254874	0.40313841337351	4.79313265920874	1.02886209322495	2.59969692057852	0.178489917963768	5.64299375126198	0.827636543386115	3.32530906434764	0.269205690972992	AT4G11190	Disease resistance-responsive (dirigent-like protein) family protein
AT4G12030	-0.464456419136171	0.0343435022447354	0.322880778138905	-0.418136212322492	1.76305836946373e-07	2.45667791471551e-05	-0.481947559006725	3.78484340007614e-07	4.64120684145373e-05	-0.443479679068116	7.96880898039373e-07	5.47860441136319e-05	3.77165549592947	0.885982210284146	2.86266751412331	1.27490766958288	11.935222348108	2.28969160895699	8.20861243408565	1.01662378099376	7.71754556396634	1.09749749833599	5.40636798841324	0.465862542731766	BAT5|BASS5	bile acid transporter 5
AT4G13770	-0.124338681563512	0.128510906529169	0.533033277104182	-0.29179183441252	8.93205917567215e-09	1.68236874583988e-06	-0.234682223431028	1.07808899801555e-05	0.000868308189141339	-0.217614333838769	2.23620346695221e-06	0.00013480841027737	79.8111941182792	12.4334595650276	73.3031170715871	10.888423369442	145.131301046666	17.1160872798865	115.152339454152	8.53447709902954	110.248686962887	7.96130785548059	93.1496012615501	0.971062993806068	REF2|CYP83A1	cytochrome P450, family 83, subfamily A, polypeptide 1
AT4G15480	-0.113715450626803	0.170802742730467	0.59349802938848	-0.279222369558449	1.12553420440266e-05	0.000906768868921566	-0.337935239475149	2.78869422397886e-06	0.000267312052321748	-0.238401374273585	4.55541972171222e-07	3.32510507913359e-05	13.215988727221	1.09345325475761	11.6818831679861	1.59788120986874	14.2990991698206	1.19793617069874	11.6068857015088	1.37872358662376	11.2816152369905	0.596169963187495	9.00735235490087	0.517782792276904	UGT84A1	UDP-Glycosyltransferase superfamily protein
AT4G16590	-0.106897106194854	0.116930943681522	0.514285223209256	-0.522057321498755	6.94877299788706e-38	1.1163408196782e-34	-0.734827756407235	2.60436567918548e-20	2.14844384498383e-17	-0.456333766522172	1.17324944305759e-11	2.36264146710476e-09	48.0428021872056	8.45752204278094	41.9392277425356	1.68868049563667	97.8531956093847	10.5188733994155	66.1740267480814	8.04001023592893	110.008514172313	18.6233444999789	66.8385064424391	2.16432734596365	CSLA01|ATCSLA1|ATCSLA01	cellulose synthase-like A01
AT4G21650	-0.155889452869052	0.0135861062530068	0.20632204374023	-0.229631565703491	9.63101164469584e-08	1.42952477732765e-05	-0.327266355304759	2.87335338311202e-12	8.59574715917127e-10	-0.235379944452617	5.12043268174022e-10	7.34290735178443e-08	34.2119546461345	1.74138255939263	31.5447496428456	4.85592932854643	44.8350205341854	4.47920332733533	39.400590282494	1.26099567250883	39.1083396043365	3.14303510695643	32.7930498494554	1.17790000880549	AT4G21650	Subtilase family protein
AT4G24960	0.0917672752903726	0.327395844571188	0.701177509889458	0.334979701186187	3.04292333684353e-12	1.0134790152748e-09	0.264167990756837	2.86360816488144e-07	3.62586070104965e-05	0.229449611588408	4.85232241929529e-06	0.000269095396041934	290.102130819322	56.7854780968405	313.467971005271	43.2726662961778	208.65180486891	19.7789461306289	256.398546584692	17.043522220958	197.630176324836	15.1338629964832	240.176582091916	11.4145259894416	HVA22D|ATHVA22D	HVA22 homologue D
AT4G26760	0.109254206280015	0.031519623268895	0.309633200467832	0.187028561542193	7.44696513184577e-06	0.000639572530552955	0.347662268498559	9.61350907985377e-13	3.15311515278144e-10	0.215946366310682	6.04047115429314e-09	6.91585233689514e-07	40.7153495756239	3.46559446564315	44.854977900721	3.19610638923198	43.3933569391082	1.33229815343174	50.525867969592	1.11061589393054	44.9611603394128	1.88358310978018	55.8841772563392	2.14050984647686	MAP65-2	microtubule-associated protein 65-2
AT4G27560	-0.119061260293406	0.0361383814907158	0.331119431210585	-0.230825368038568	4.04971685720637e-07	5.14427056219364e-05	-0.280388687529172	1.55998016719358e-08	2.57377818736429e-06	-0.21347347774364	1.35780862130118e-07	1.1508542684545e-05	29.5245243714451	4.4154150016286	26.056481834122	3.28881161460049	51.5976201426739	1.64355182145795	43.4603306500779	4.91902845624403	65.4938471065825	3.06764001758161	53.481932655685	1.25279240231	AT4G27560	UDP-Glycosyltransferase superfamily protein
AT4G30250	-0.0705040578756999	0.284138076192542	0.66100323599088	-0.277092406914948	8.08388946708294e-09	1.56580925698938e-06	-0.311824608186846	1.18048466994954e-07	1.66509503471691e-05	-0.217517675563947	1.51774952831192e-07	1.26378240782665e-05	23.270046408806	2.30980801003068	21.4987914418104	1.23171134361633	28.7034310187144	2.46540785801984	24.0717071629676	2.02556139800374	25.1553301921924	1.26143367087786	19.6305488130769	0.398858983220526	AT4G30250	P-loop containing nucleoside triphosphate hydrolases superfamily protein
AT4G30450	-0.0462302160233299	0.627692329143999	0.881515535567053	-0.363077344396251	6.54588621829944e-06	0.000572995828551205	-0.708566041706749	1.19152125966314e-13	4.50510878497355e-11	-0.370159990807794	2.22141001823872e-06	0.000134201523527383	15.8137822991837	3.24074886297607	13.9141480131587	0.462620123074228	23.3378007382549	0.553690045255374	18.2085192719559	2.25569324686795	19.2367377629772	0.553667141791417	11.9638593598396	0.830772091599657	AT4G30450	glycine-rich protein
AT4G30460	-0.312456790217685	0.0091655431909524	0.172221688106538	-0.51682511580962	8.701277326673e-11	2.40040995018956e-08	-0.913843693099324	4.87587074526115e-17	2.82416658081371e-14	-0.563420135883363	1.86708153878904e-13	5.19744247180156e-11	16.3981314812499	3.17146573128913	12.9497591901199	2.03816401410336	16.9532728367543	0.981408783371256	11.906881225557	0.21275467143009	12.6616087418475	1.7069162442862	6.72572748480878	0.162458255733794	AT4G30460	glycine-rich protein
AT4G31550	0.280710726256452	0.000141368137214922	0.011424547159705	0.418498621453853	8.19873136581787e-13	2.90799418612795e-10	0.376713556729132	6.55446687255467e-10	1.40497835961855e-07	0.364980139348905	4.56765830578871e-28	7.62906411379792e-25	12.3486206467834	1.01015633941625	15.2835932783343	0.306361292973742	17.6460776950425	0.839954225257088	23.3469700318689	1.1220807940627	21.3976949394287	1.08021122710947	27.3800250551647	0.705937599152228	ATWRKY11|WRKY11	WRKY DNA-binding protein 11
AT4G32480	0.464256127891259	5.306673971635e-06	0.001031075461893	1.03125336277616	6.28212682058294e-36	8.17005550461622e-33	0.591737505703663	3.11248455125973e-07	3.90466207091906e-05	0.697731569216228	9.70697144462327e-14	2.93212497019823e-11	20.7585548259959	3.89202390076223	31.0189113936533	5.28432258730029	9.19342283396524	0.755998865407852	20.0683793244673	4.55782559278717	8.08447467216079	0.945767193868263	12.6156297632971	2.1572119686987	AT4G32480	Protein of unknown function (DUF506)
AT4G35090	0.254318701716366	1.55007689839762e-05	0.0022003060470726	0.363267385724709	1.6819372559687e-15	8.50655340699281e-13	0.392730032935293	1.24922651250198e-15	6.18321697269843e-13	0.335764401187575	1.41225393864088e-15	6.07568762632864e-13	89.1069280141414	7.63490054238467	111.640963642116	9.65080284829086	77.9869486359317	4.28012726019408	102.33632708761	9.29922790638452	25.6104239450772	1.68443499075443	34.2385669254102	1.03783897540667	CAT2	catalase 2
AT4G35770	1.00698690135479	1.09061799125507e-07	5.06416448956337e-05	1.37860063292855	4.78558738017497e-24	3.84409343941054e-21	1.35746022149717	5.66681530602828e-30	1.18667471596929e-26	1.25887851819951	9.2646727458613e-21	7.51603194131388e-18	21.1936870594248	8.07984851152941	47.8387788445492	26.7675268030485	7.64699328182779	1.8977422510794	22.9222198422635	9.07418149240846	4.48433160003391	0.688987107945642	11.6952355280418	2.44862279282316	SEN1|DIN1|ATSEN1	Rhodanese/Cell cycle control phosphatase superfamily protein
AT4G36040	0.412081428952238	9.54723114893067e-13	1.63472465347565e-09	0.872691691516369	2.92193437513012e-105	3.99004748595894e-101	0.445138072659824	2.97786842346195e-09	5.79046514942176e-07	0.578073545203269	7.8886389244962e-14	2.51674172609152e-11	143.957515178244	31.2592246394333	199.294989745512	41.529452467545	77.5007122797455	10.6241318360767	146.530407202026	21.4564946184656	46.9111481698019	5.84887922399372	64.1436914684342	8.04405538158939	AT4G36040	Chaperone DnaJ-domain superfamily protein
AT4G36570	-0.160754959144781	0.0450826833768103	0.359454293396394	-0.504285537577956	1.25488908389015e-10	3.4272275770124e-08	-0.474995250249521	2.1570466365573e-06	0.000211227628010789	-0.376729435996664	2.17620763090317e-11	4.24321065817277e-09	34.9362194908829	3.85063066178392	30.5574683713966	2.72543679640603	36.6635757260757	2.54204783149804	25.6889007448242	2.21064647371229	33.4358993074764	4.02146483517898	23.5558175062749	0.254648086096821	ATRL3|RL3	RAD-like 3
AT4G36930	0.236428090117198	0.000119000277235228	0.0100932866722486	0.29004050887144	8.32852980100178e-07	9.47751989146498e-05	0.414397956917151	1.60993650244958e-14	6.95671450891826e-12	0.315292701273768	5.38165681873912e-20	3.72699423686045e-17	17.2458250778716	1.1969196231474	20.4027304934316	1.16078403842855	20.5268695115085	1.246630926407	24.7983875582244	0.508112528336176	22.1026814126034	0.875151884408332	29.1853702736809	0.0488957017276541	SPT	basic helix-loop-helix (bHLH) DNA-binding superfamily protein
AT4G37870	-0.102341090636166	0.176971562224312	0.600931199640214	0.273673360267338	1.70095055979256e-08	3.03625233584933e-06	0.357700961071129	1.30203597929241e-08	2.18358042382042e-06	0.178023822708377	0.0018965582125494	0.0373445727372592	177.771026696494	12.4459003137653	175.7957257594	28.6712590340621	153.68234382292	17.8370504119334	181.633250973705	13.4517126996668	161.007635847478	9.72520680750942	201.30334525509	23.8967575340043	PCK1|PEPCK	phosphoenolpyruvate carboxykinase 1
AT5G04230	0.46362036627269	8.62675570643716e-17	3.37626570476503e-13	0.734564129242598	5.74546600376256e-37	8.71746789048663e-34	0.648048813693963	1.53256485795687e-25	2.086050656408e-22	0.606064273918045	1.04044527289102e-58	7.3856007696169e-55	15.3842284012797	1.29742855812542	21.7081413235534	1.44795928711477	9.67675880574324	0.793240699189745	15.9727272038374	0.840539679858093	8.01924294410653	0.495583485441954	12.3273623132692	0.519607442363946	PAL3|ATPAL3	phenyl alanine ammonia-lyase 3
AT5G04885	0.0684265505294161	0.180553579845654	0.606657399863837	0.195260602150291	3.05602789174034e-06	0.000294922889580638	0.201386393497702	4.18709615371045e-06	0.000386390910482913	0.156019801796303	8.38055016914921e-08	7.3899795497771e-06	41.1436939018366	2.66571459084518	44.1004273300676	2.99752582717409	50.5369409756473	0.805092222906782	57.2649000925611	2.62416784204653	59.0643038952539	0.607218893081417	67.3583822263693	0.674730972219901	AT5G04885	Glycosyl hydrolase family protein
AT5G13290	0.200214175655897	0.00965319708531789	0.177014047757275	0.375559557316224	6.29493703004689e-10	1.46941047203086e-07	0.423747900195803	7.86727077656008e-08	1.16397126277334e-05	0.333922098308144	3.36166371847089e-13	8.75697978185894e-11	10.3229106770804	0.622387008066088	11.2847144720276	0.281505685514748	9.86731253716141	0.265914421340918	12.6466901432118	0.583395994501512	10.2504371019533	0.891596279183482	13.7327264390477	0.783240417263404	SOL2|CRN	Protein kinase superfamily protein
AT5G14450	0.135047826637386	0.0284279430043563	0.293117021658767	0.381224869133139	1.72087287954872e-11	5.05363002294141e-09	0.452579114266825	9.17422652224688e-15	4.02822530024398e-12	0.325469920928599	4.07684957698626e-17	2.1046921252536e-14	17.7161764796848	0.522844916060966	19.2322221067217	0.319706187549553	18.2970530908675	0.259413192770083	23.6046936081112	1.14781348885618	19.1766411248961	1.04065339109762	26.0496070924721	0.0725041434350637	AT5G14450	GDSL-like Lipase/Acylhydrolase superfamily protein
AT5G15780	-0.0352105095703163	0.511148576642619	0.826843788716415	-0.190860732447659	2.32631570083968e-06	0.000230195681542146	-0.332161827848892	6.97991121685323e-09	1.24192237291762e-06	-0.186376592946448	1.77602326083484e-06	0.000111276191299184	113.17100917647	12.0895899716671	111.460502820926	18.6524520563108	134.212369621569	12.3842841765617	119.830461507541	9.62590591934688	182.188613635307	22.8397812262971	144.10331110136	9.05511075830194	AT5G15780	Pollen Ole e 1 allergen and extensin family protein
AT5G18670	0.377014336862262	6.36692973732386e-06	0.00119471511701181	1.05384056671122	5.57665138770675e-66	2.17577037213799e-62	0.749510617139297	5.93968179821431e-23	6.73733156636617e-20	0.734966564149837	8.06844793018012e-14	2.51902522943338e-11	145.823760141878	33.8442217417185	203.523540977239	40.9775942104848	46.1049508639277	5.20653007468316	103.463082185447	29.2115933275724	36.0812218612703	2.44797510474395	62.425415258768	8.81195212897862	BAM9|BMY3	beta-amylase 3
AT5G21940	0.738801002911848	9.51814388937367e-23	1.30379534996641e-18	1.50644823213772	6.56829115978094e-127	1.79386599864777e-122	0.833885040515527	5.91809960784266e-10	1.27863829860556e-07	1.02191774728012	3.00354114730319e-16	1.42137578894211e-13	36.7142385079026	14.9311549373863	61.3825297901679	20.1770700253458	13.5872927639877	4.24376859363999	43.2358615548313	14.4416262106785	12.842135799956	2.38785071149831	24.8242982171704	4.88389735629171	AT5G21940	unknown protein; BEST Arabidopsis thaliana protein match is: unknown protein (TAIR:AT3G43850.1); Has 30201 Blast hits to 17322 proteins in 780 species: Archae - 12; Bacteria - 1396; Metazoa - 17338; Fungi - 3422; Plants - 5037; Viruses - 0; Other Eukaryotes - 2996 (source: NCBI BLink).
AT5G24770	0.041521329626703	0.588327681557664	0.864161594201874	-0.246398222478821	8.41233115094189e-06	0.000711297758710136	-0.574629568149674	2.56809783066377e-14	1.04345264543522e-11	-0.260717514756825	0.00104093781300482	0.0232727466633535	36.2298408520917	2.94402325719166	36.1405220947584	8.26790457999048	55.4203060790734	9.53299994415174	43.6402750429046	6.66604999771022	78.2645950852971	2.06363754777792	55.3293681189987	7.20208528085351	ATVSP2|VSP2	vegetative storage protein 2
AT5G25280	0.232609062556249	4.7267428334476e-06	0.000941982344864255	0.211627663238903	8.13288297366308e-07	9.37203235838449e-05	0.220460157389148	9.16868541726832e-06	0.000763300070685919	0.222106225368809	3.41684598423039e-13	8.81981135238524e-11	29.7427354596755	1.71985623629619	35.0787734385923	2.69683800015892	28.0528219654266	0.602222063879482	32.9094515902902	2.44162030910223	32.2495807103468	2.43750204440961	38.0686135294589	2.62736808170199	AT5G25280	serine-rich protein-related
AT5G25490	0.23412910407172	0.0209323728099127	0.254872571333497	0.592798431496756	1.23947442815048e-09	2.72994242800143e-07	0.583581237373984	7.19172562538751e-09	1.27130095259691e-06	0.46617159797957	8.82748702409484e-14	2.72443115828423e-11	9.32682882662413	0.849455475672244	10.9011375618709	1.50612714566961	7.70797144352985	0.730626539489229	11.3379734519276	0.9402771679976	8.70266158694398	0.775962898361516	13.3591455597899	1.12243697217016	AT5G25490	Ran BP2/NZF zinc finger-like superfamily protein
AT5G28300	-0.245648334155494	6.14475422492736e-06	0.00116097714997317	-0.241063067224354	4.7289961920278e-07	5.89742534248728e-05	-0.253823070859794	6.46457785474196e-06	0.00056953140109916	-0.24652594988973	5.89709846339787e-15	2.26273261850972e-12	35.3236912098054	2.16719314606837	30.7030836253165	1.8480726185338	34.6061118031181	1.173729059802	29.8315862582603	2.04905878046523	34.3026233489276	1.82757482294766	27.9841031766545	1.56834647469315	AT5G28300	Duplicated homeodomain-like superfamily protein
AT5G28640	0.211643602020977	8.32706444938124e-05	0.0078128051105241	0.243516774208954	5.90863816639361e-07	7.07766741063053e-05	0.39804284701054	4.60312228362677e-11	1.2049115185305e-08	0.282643831710907	1.21832576290052e-14	4.49261580672693e-12	72.6951740834695	3.85841179527482	83.1069665456092	8.48991224231434	72.8123665347192	6.32660377960703	86.8286779466468	3.50112448379422	59.1263156407597	6.81329821671515	76.4610567841801	5.67135680089259	GIF|GIF1|ATGIF1|AN3	SSXT family protein
AT5G37600	-0.275853864284054	8.47875266285618e-06	0.0014338512836519	-0.533409841423927	1.14592620813815e-27	1.11772823823075e-24	-0.666918415796535	1.65861831740998e-34	5.64407080685649e-31	-0.488272405359693	1.57157896388931e-22	1.43946493873138e-19	104.135546983757	15.2172403646967	86.140397352721	11.2538228454022	77.0086594436626	5.37144630744109	54.2260787884487	9.84349933466444	69.817757786672	6.5553449765496	43.0381159208515	1.04235259515872	ATGSR1|ATGLN1;1|GLN1;1|GSR 1	glutamine synthase clone R1
AT5G41080	0.128762119876084	0.124784245690629	0.526260651930491	0.343741782383516	2.10328667240993e-07	2.88657599548682e-05	0.476212171755007	4.5880401881301e-12	1.32872572384538e-09	0.317663634072449	2.03612248894335e-07	1.64243357815504e-05	32.4335665942206	3.68195463891615	37.8771603120013	6.36029521711077	15.6948262276836	1.66918151344537	20.3774504239678	2.08099598001752	18.5507965858657	2.39255306640364	26.6144127075944	1.11222454311499	AT5G41080	PLC-like phosphodiesterases superfamily protein
AT5G43935	0.246082812231447	0.145123840725039	0.560464159510215	0.599073645872465	3.65097963453514e-06	0.000343834154478583	1.22436639660843	1.67089202627998e-18	1.16632547772872e-15	0.705647774757984	5.6024601750845e-10	7.87506208967076e-08	2.63332281526997	0.427126128784422	3.01640990454775	1.16161122044783	3.66651541463572	0.536562219999613	5.02150919492275	0.296256607343562	2.9173218466177	0.235342034461314	6.67978888849514	1.18275062443036	FLS6|ATFLS6	flavonol synthase 6
AT5G45960	-0.0407337268964819	0.570499163788183	0.855639761045468	-0.200772014819957	1.72700396953994e-06	0.000177316561699644	-0.248007239840739	1.19961127217635e-05	0.000957683802418084	-0.163083744449812	5.62762514589121e-05	0.00216007983509299	53.7069959201795	7.77642538343886	51.1766766533066	1.74862468214375	53.3584579562507	1.41371595438016	46.5029134923147	1.11566341102405	48.6736551351609	2.24846728286735	41.7177535980002	2.05925324094003	AT5G45960	GDSL-like Lipase/Acylhydrolase superfamily protein
AT5G50915	-0.492484909600088	3.74800121910994e-06	0.000808505837785321	-0.369290190311325	5.83717900771999e-06	0.000520977764313205	-0.411959576889377	4.30510106237594e-06	0.000395938399395473	-0.423371702195977	5.50642590151398e-16	2.48173741345378e-13	8.75749662638746	0.808855781525704	6.31725882167144	0.830054785118986	9.59431330689402	0.726676932640743	7.69785435208027	0.720936842780318	9.96495923767691	0.992462378303748	7.30552447305082	0.254697328308564	AT5G50915	basic helix-loop-helix (bHLH) DNA-binding superfamily protein
AT5G52320	-0.336240698138935	1.81090731312706e-05	0.00246823963932482	-0.294122885438027	1.18577087210345e-05	0.000946917786199333	-0.329283129430927	2.69389879595366e-06	0.000260056762135625	-0.319339202940502	1.55637880813548e-13	4.37542771071276e-11	16.6906457230311	1.61266914007775	13.025326813313	2.39635913716879	12.4719359709327	0.831135458285912	10.3449606033252	0.30537074381484	13.209664896328	1.02562213561428	10.7552784101068	0.499100126979329	CYP96A4	cytochrome P450, family 96, subfamily A, polypeptide 4
AT5G59130	0.73402122744935	8.07876055292948e-30	2.21325724108056e-25	0.870158283378226	1.676398468313e-77	7.63068642801607e-74	1.04419611019111	1.81256015089598e-81	4.93433249878414e-77	0.889983685797767	6.07287042769237e-99	1.72433082923897e-94	10.4516232071801	1.46595943874296	17.2248680292156	3.30302902102194	18.2989242405361	1.67461406175689	32.1725967061599	2.07830222512602	16.3740460330877	1.3628951374069	33.1072323384679	1.9246962826967	AT5G59130	Subtilase family protein
AT5G59780	-0.362369658378928	0.0120461558700267	0.196668587761753	-0.797696249504349	6.72068503448018e-07	7.91432276844988e-05	-1.21224493784652	8.35507079725313e-06	0.000704179852364155	-0.659568392637877	5.4209833692108e-09	6.30833613874473e-07	3.42861800726443	0.290440792774939	2.7023688911457	0.218221588806624	2.88367818812948	0.583136891475531	1.62844099385914	0.305943942120764	1.05920802117017	0.210253603067499	0.503361175720831	0.187314710080774	ATMYB59-1|MYB59|ATMYB59|ATMYB59-3|ATMYB59-2	myb domain protein 59
AT5G60680	0.400225896284414	1.24330286704108e-13	2.62011733426595e-10	0.67897949435084	2.09528517943995e-40	4.40187181043726e-37	0.493938747037066	1.88981026251575e-09	3.78281652768134e-07	0.523612618606396	1.80938750559141e-23	1.71252496112542e-20	47.784098773383	5.17335731850763	62.7844122428008	7.26371707851429	41.832689945987	3.73629986575971	70.4238018046237	8.88204616941706	38.7885066666248	3.9388345868697	57.061556580284	6.50946190013865	AT5G60680	Protein of unknown function, DUF584
AT5G61440	0.330540473446706	1.59009319546253e-06	0.00043717684552979	0.780276149354894	2.2823240991743e-36	3.28066070908155e-33	0.448072627750769	1.871147187001e-12	5.92305114787539e-10	0.515714417117461	6.02531793915738e-15	2.28110503419246e-12	40.4019617945044	4.22504131456791	52.7139258906072	5.44430749563105	17.579017930292	2.96164878114084	31.8013405703889	7.23300062425115	32.7818325475572	1.74986992925558	46.1988723523495	5.73237276217531	ACHT5	atypical CYS  HIS rich thioredoxin 5
AT5G63530	0.201198534062839	0.0208818810390412	0.254680473665047	0.317377561295902	8.92404311273715e-15	4.20214726641318e-12	0.337807165631987	4.74589165928408e-11	1.23045151086372e-08	0.286660073602579	6.03246876352588e-11	1.0444263297046e-08	106.343365497563	8.82766598013196	131.278335136315	2.95305593203492	93.3301904639484	3.09885727665137	117.642875537229	2.8955755482534	111.099338435441	6.94950190056088	135.927184484498	1.8756439951633	ATFP3|FP3	farnesylated protein 3
AT5G65110	0.109751335260628	0.034472634818266	0.323402276136208	0.227760877400179	5.4861346730599e-07	6.68892071678298e-05	0.35403563410887	5.00534871908512e-13	1.68222973061302e-10	0.228782333580343	3.69299822244904e-10	5.43310836933773e-08	26.9661754484837	2.78523293150229	29.2137300915797	2.61040654149928	21.8722826893535	1.52274262161447	26.1187064162507	1.11804915040041	24.6390326009995	1.26444206880759	31.0273547296925	0.371829000947549	ATACX2|ACX2	acyl-CoA oxidase 2
AT5G65310	0.140914717649144	0.00703859780247761	0.148606371812894	0.256564379681203	1.91936110465091e-10	5.04035299318472e-08	0.394489374784643	1.25201294187281e-17	7.92640658525664e-15	0.263017614511861	1.32884490364093e-13	3.85012471367149e-11	72.1855872724964	2.88291412598305	77.2363620406307	5.55377505885405	48.4345875421765	0.51124148818574	57.3698513452666	3.20725129221789	49.2225456417268	1.15625026629533	63.8133816083247	0.958987309317314	HB5|ATHB-5|ATHB5	homeobox protein 5
AT5G65590	0.388550144541774	0.00449987942526057	0.116081635343163	0.667615077084959	8.17034924229102e-09	1.57141132504373e-06	0.646467404116858	1.12576667895033e-08	1.91542164381655e-06	0.568351909595329	3.07931982629057e-14	1.04088341842493e-11	2.89233074399385	0.457106256539333	3.87189478597049	0.617691020708655	3.11470491481086	0.383125051977574	5.11839175268345	0.817645041559877	3.39972312851427	0.0939449190137849	5.26394167016444	0.436756323171193	AT5G65590	Dof-type zinc finger DNA-binding family protein
AT5G67360	0.161709189261275	0.00470786645039868	0.118438731503244	0.256232525337698	1.53225180349936e-09	3.34778632042969e-07	0.290236578244629	1.46771825256573e-10	3.66565999904558e-08	0.236370533643578	2.32093375260715e-16	1.11695920290724e-13	100.153555578976	5.07114073206373	114.708807258	5.53213725582524	93.7047242536468	2.15854784971984	110.565283788027	4.29285825780865	88.0059841368856	1.79191325731905	107.608968759776	3.16112297527986	ARA12	Subtilase family protein
