flat1dex2hours	 25992072
flat1dex4hours	 29666810
flat1dex8hours	 26758578
flat1mock2hours	 23198352
flat1mock4hours	 23983809
flat1mock8hours	 25811119
flat2dex2hours	 26938934
flat2dex4hours	 27658592
flat2dex8hours	 27296584
flat2mock2hours	 29489954
flat2mock4hours	 28189785
flat2mock8hours	 35644161
flat3dex2hours	 30849947
flat3dex4hours	 22656597
flat3dex8hours	 23254218
flat3mock2hours	 25419220
flat3mock4hours	 23423344
flat3mock8hours	 16387204
flat4dex2hours	 26203738
flat4dex4hours	 26280889
flat4dex8hours	 23617825
flat4mock2hours	 29301342
flat4mock4hours	 23898527
flat4mock8hours	 24907881
